<?xml version="1.0" standalone="no"?>
<!DOCTYPE svg PUBLIC "-//W3C//DTD SVG 1.1//EN" "http://www.w3.org/Graphics/SVG/1.1/DTD/svg11.dtd" >
<svg xmlns="http://www.w3.org/2000/svg" xmlns:xlink="http://www.w3.org/1999/xlink" version="1.1">
<metadata>
Created by FontForge 20161003 at Mon Dec 19 13:05:36 2016
 By www-data
Copyright (c) 1990, 2002 Adobe Systems Incorporated.  All Rights Reserved. (c) 1981, 2002 Heidelberger Druckmaschinen AG. All rights reserved.
</metadata>
<defs>
<font id="HelveticaNeueLTStdLtCn" horiz-adv-x="426" >
  <font-face 
    font-family="HelveticaNeueLTStdLtCn"
    font-weight="300"
    font-stretch="condensed"
    units-per-em="1000"
    panose-1="2 11 4 6 2 2 2 3 2 4"
    ascent="714"
    descent="-286"
    x-height="531"
    cap-height="714"
    bbox="-167 -204 1000 927"
    underline-thickness="50"
    underline-position="-150"
    unicode-range="U+0020-FB02"
  />
<missing-glyph horiz-adv-x="500" 
d="M0 0v700h500v-700h-500zM250 395l170 255h-340zM280 350l170 -255v510zM80 50h340l-170 255zM50 605v-510l170 255z" />
    <glyph glyph-name="fi" unicode="fi" 
d="M304 0v531h60v-531h-60zM304 612v102h60v-102h-60zM80 0v481h-73v50h73v63q0 63 23 95.5t93 32.5q22 0 38 -3v-50q-14 3 -29 3q-34 0 -49.5 -17t-15.5 -61v-63h94v-50h-94v-481h-60z" />
    <glyph glyph-name="fl" unicode="fl" 
d="M304 0v714h60v-714h-60zM80 0v481h-73v50h73v63q0 63 23 95.5t93 32.5q22 0 38 -3v-50q-14 3 -29 3q-34 0 -49.5 -17t-15.5 -61v-63h94v-50h-94v-481h-60z" />
    <glyph glyph-name=".notdef" horiz-adv-x="500" 
d="M0 0v700h500v-700h-500zM250 395l170 255h-340zM280 350l170 -255v510zM80 50h340l-170 255zM50 605v-510l170 255z" />
    <glyph glyph-name=".null" horiz-adv-x="0" 
 />
    <glyph glyph-name="nonmarkingreturn" horiz-adv-x="333" 
 />
    <glyph glyph-name="space" unicode=" " horiz-adv-x="240" 
 />
    <glyph glyph-name="exclam" unicode="!" horiz-adv-x="240" 
d="M86 488v226h68v-226l-12 -302h-44zM86 0v102h68v-102h-68z" />
    <glyph glyph-name="quotedbl" unicode="&#x22;" horiz-adv-x="352" 
d="M71 474v240h60v-240h-60zM221 474v240h60v-240h-60z" />
    <glyph glyph-name="numbersign" unicode="#" horiz-adv-x="480" 
d="M189 426l-20 -156h122l20 156h-122zM3 226v44h116l20 156h-110v44h116l30 226h50l-30 -226h122l30 226h50l-30 -226h110v-44h-116l-20 -156h110v-44h-116l-30 -226h-50l30 226h-122l-30 -226h-50l30 226h-110z" />
    <glyph glyph-name="dollar" unicode="$" horiz-adv-x="480" 
d="M219 396v258q-54 -6 -84 -40t-30 -84q0 -55 30 -85t84 -49zM263 321v-279q57 6 90.5 41.5t33.5 98.5q0 57 -31.5 86.5t-92.5 52.5zM29 195v20h64v-26q0 -64 32.5 -103.5t93.5 -43.5v294q-41 12 -66.5 23t-54.5 31.5t-43 54t-14 79.5q0 78 47 127.5t131 56.5v71h44v-71
q169 -13 169 -190h-64q0 124 -105 136v-273q29 -10 40 -13.5t36.5 -14t36.5 -18.5t29 -23t25.5 -31t14 -39t6.5 -50q0 -92 -50 -144t-138 -60v-83h-44v83q-190 11 -190 207z" />
    <glyph glyph-name="percent" unicode="%" horiz-adv-x="722" 
d="M107 524q0 -140 72 -140t72 140t-72 140t-72 -140zM182 -12l307 720h50l-307 -720h-50zM471 172q0 -140 72 -140t72 140t-72 140t-72 -140zM53 524q0 104 31 144t95 40t95 -40t31 -144t-31 -144t-95 -40t-95 40t-31 144zM417 172q0 104 31 144t95 40t95 -40t31 -144
t-31 -144t-95 -40t-95 40t-31 144z" />
    <glyph glyph-name="ampersand" unicode="&#x26;" horiz-adv-x="537" 
d="M475 0l-63 87q-66 -99 -190 -99q-90 0 -145 54t-55 135q0 105 103 184l59 45q-82 108 -82 176q0 62 42 97t104 35t99.5 -36.5t37.5 -95.5q0 -47 -27 -90t-99 -94l154 -216q24 59 26 135h60q0 -96 -50 -185l94 -132h-68zM162 584q0 -55 67 -145q96 73 96 145q0 34 -23 57
t-58 23t-58.5 -23t-23.5 -57zM381 132l-167 234q-71 -50 -99.5 -93t-28.5 -89q0 -62 42 -102t103 -40q45 0 87 25t63 65z" />
    <glyph glyph-name="quotesingle" unicode="'" horiz-adv-x="240" 
d="M90 474v240h60v-240h-60z" />
    <glyph glyph-name="parenleft" unicode="(" horiz-adv-x="222" 
d="M187 714h43q-116 -202 -116 -449t116 -449h-43q-133 217 -133 449t133 449z" />
    <glyph glyph-name="parenright" unicode=")" horiz-adv-x="222" 
d="M35 -184h-43q116 202 116 449t-116 449h43q133 -217 133 -449t-133 -449z" />
    <glyph glyph-name="asterisk" unicode="*" horiz-adv-x="334" 
d="M145 714h44v-111l106 34l13 -42l-105 -34l65 -90l-36 -26l-65 90l-65 -90l-36 26l65 90l-105 34l13 42l106 -34v111z" />
    <glyph glyph-name="plus" unicode="+" horiz-adv-x="600" 
d="M275 0v228h-228v50h228v228h50v-228h228v-50h-228v-228h-50z" />
    <glyph glyph-name="comma" unicode="," horiz-adv-x="240" 
d="M86 0v102h68v-102q0 -111 -74 -138v40q34 21 35 98h-29z" />
    <glyph glyph-name="hyphen" unicode="-" horiz-adv-x="333" 
d="M58 311h217v-54h-217v54z" />
    <glyph glyph-name="period" unicode="." horiz-adv-x="240" 
d="M86 0v102h68v-102h-68z" />
    <glyph glyph-name="slash" unicode="/" horiz-adv-x="278" 
d="M234 726h54l-244 -738h-54z" />
    <glyph glyph-name="zero" unicode="0" horiz-adv-x="480" 
d="M105 348q0 -169 31 -239.5t104 -70.5t104 70.5t31 239.5t-31 239.5t-104 70.5t-104 -70.5t-31 -239.5zM41 348q0 84 8.5 145.5t30 112t61.5 76.5t99 26t99 -26t61.5 -76.5t30 -112t8.5 -145.5t-8.5 -145.5t-30 -112t-61.5 -76.5t-99 -26t-99 26t-61.5 76.5t-30 112
t-8.5 145.5z" />
    <glyph glyph-name="one" unicode="1" horiz-adv-x="480" 
d="M230 0v542h-162v44q169 1 176 122h46v-708h-60z" />
    <glyph glyph-name="two" unicode="2" horiz-adv-x="480" 
d="M111 486h-64q2 105 52 163.5t148 58.5q78 0 130.5 -48.5t52.5 -143.5q0 -66 -25 -114.5t-92 -103.5l-77 -63q-59 -49 -87.5 -88.5t-36.5 -92.5h324v-54h-392q0 84 36 146.5t112 126.5l76 64q53 45 75.5 85t22.5 91q0 69 -34.5 107t-90.5 38q-124 0 -130 -172z" />
    <glyph glyph-name="three" unicode="3" horiz-adv-x="480" 
d="M187 343v50h33q64 0 99 34.5t35 97.5t-30 98t-87 35q-56 0 -90 -37t-35 -109h-64q0 91 48.5 143.5t140.5 52.5q82 0 131.5 -47t49.5 -128q0 -61 -29 -103.5t-85 -56.5v-2q62 -9 98.5 -55.5t36.5 -112.5q0 -98 -52.5 -156.5t-150.5 -58.5q-92 0 -143 51.5t-55 149.5h64
q0 -66 34.5 -108.5t99.5 -42.5q60 0 99.5 40t39.5 123q0 68 -38 105t-103 37h-47z" />
    <glyph glyph-name="four" unicode="4" horiz-adv-x="480" 
d="M305 0v182h-273v60l273 466h60v-472h83v-54h-83v-182h-60zM86 236h219v370h-2z" />
    <glyph glyph-name="five" unicode="5" horiz-adv-x="480" 
d="M96 696h310v-54h-262l-31 -247l2 -2q19 37 56.5 54.5t80.5 17.5q85 0 136 -60t51 -174q0 -110 -54.5 -176.5t-155.5 -66.5q-84 0 -136 51t-52 142h64q0 -62 34.5 -102.5t96.5 -40.5q65 0 102 52.5t37 150.5q0 78 -35 126t-103 48q-42 0 -75 -20.5t-47 -61.5h-60z" />
    <glyph glyph-name="six" unicode="6" horiz-adv-x="480" 
d="M427 542h-64q-2 53 -31.5 84.5t-80.5 31.5q-75 0 -111 -75t-38 -247l2 -2q17 55 56.5 85.5t95.5 30.5q90 0 138 -60t48 -160q0 -107 -50 -174.5t-147 -67.5q-115 0 -161 82.5t-46 258.5q0 92 10 158t34 117.5t67 77.5t105 26q82 0 126.5 -45.5t46.5 -120.5zM114 219
q0 -77 32 -129t100 -52t100 52t32 129t-32 129t-100 52t-100 -52t-32 -129z" />
    <glyph glyph-name="seven" unicode="7" horiz-adv-x="480" 
d="M41 642v54h398v-54q-108 -133 -175 -310.5t-79 -331.5h-68q8 147 83 331.5t179 310.5h-338z" />
    <glyph glyph-name="eight" unicode="8" horiz-adv-x="480" 
d="M105 195q0 -67 35 -112t100 -45t100 45t35 112q0 68 -35 113t-100 45t-100 -45t-35 -113zM41 200q0 67 33 118t95 57v2q-50 13 -78.5 58t-28.5 98q0 84 49 129.5t129 45.5q81 0 129.5 -45t48.5 -130q0 -54 -28 -98.5t-79 -57.5v-2q62 -6 95 -57t33 -118
q0 -99 -54.5 -155.5t-144.5 -56.5t-144.5 56.5t-54.5 155.5zM126 530q0 -58 29.5 -92.5t84.5 -34.5q56 0 85 34.5t29 92.5q0 59 -29 93.5t-85 34.5t-85 -34.5t-29 -93.5z" />
    <glyph glyph-name="nine" unicode="9" horiz-adv-x="480" 
d="M53 154h64q2 -53 31.5 -84.5t80.5 -31.5q75 0 111 75t38 247l-2 2q-17 -55 -56.5 -85.5t-95.5 -30.5q-90 0 -138 60t-48 160q0 107 50 174.5t147 67.5q115 0 161 -82.5t46 -258.5q0 -92 -10 -158t-34 -117.5t-67 -77.5t-105 -26q-82 0 -126.5 45.5t-46.5 120.5zM102 477
q0 -77 32 -129t100 -52t100 52t32 129t-32 129t-100 52t-100 -52t-32 -129z" />
    <glyph glyph-name="colon" unicode=":" horiz-adv-x="240" 
d="M86 399v102h68v-102h-68zM86 0v102h68v-102h-68z" />
    <glyph glyph-name="semicolon" unicode=";" horiz-adv-x="240" 
d="M86 0v102h68v-102q0 -111 -74 -138v40q34 21 35 98h-29zM86 399v102h68v-102h-68z" />
    <glyph glyph-name="less" unicode="&#x3c;" horiz-adv-x="600" 
d="M47 226v54l506 234v-54l-446 -207l446 -207v-54z" />
    <glyph glyph-name="equal" unicode="=" horiz-adv-x="600" 
d="M47 325v50h506v-50h-506zM47 131v50h506v-50h-506z" />
    <glyph glyph-name="greater" unicode="&#x3e;" horiz-adv-x="600" 
d="M47 -8v54l446 207l-446 207v54l506 -234v-54z" />
    <glyph glyph-name="question" unicode="?" 
d="M228 185h-60v35q0 55 13.5 87t52.5 73l42 45q52 56 52 127q0 54 -31 89t-81 35q-128 0 -128 -168h-64q1 98 48.5 158t139.5 60q83 0 131.5 -48t48.5 -127q0 -88 -65 -157l-43 -46q-31 -33 -43.5 -62t-12.5 -73v-28zM164 0v102h68v-102h-68z" />
    <glyph glyph-name="at" unicode="@" horiz-adv-x="800" 
d="M243 288q0 -102 86 -102q74 0 129.5 83t55.5 160q0 49 -20.5 72.5t-65.5 23.5q-51 0 -95 -40t-67 -94t-23 -103zM547 492l25 66h57l-102 -294q-13 -39 -13 -59q0 -25 27 -25q65 0 121.5 80.5t56.5 161.5q0 114 -89 187t-210 73q-145 0 -242 -96t-97 -229
q0 -135 98.5 -230t240.5 -95q82 0 158.5 37.5t116.5 100.5h60q-51 -84 -142 -133t-193 -49q-164 0 -276.5 108t-112.5 261t114 261t275 108q147 0 248 -87.5t101 -219.5q0 -111 -76 -197t-161 -86q-30 0 -49.5 17t-18.5 51h-2q-70 -68 -141 -68q-59 0 -95.5 39.5
t-36.5 107.5q0 109 70.5 200.5t173.5 91.5q82 0 112 -83h2z" />
    <glyph glyph-name="A" unicode="A" horiz-adv-x="500" 
d="M139 262h222l-110 402h-2zM-1 0l211 714h80l211 -714h-68l-58 208h-250l-58 -208h-68z" />
    <glyph glyph-name="B" unicode="B" horiz-adv-x="500" 
d="M120 660v-260h101q160 0 160 130q0 70 -36 100t-113 30h-112zM120 346v-292h119q165 0 165 146t-165 146h-119zM56 0v714h197q99 0 145.5 -47.5t46.5 -131.5q0 -55 -29 -98.5t-81 -56.5v-2q65 -13 99 -60t34 -118q0 -94 -57.5 -147t-158.5 -53h-196z" />
    <glyph glyph-name="C" unicode="C" horiz-adv-x="519" 
d="M426 242h64q-7 -122 -61.5 -188t-150.5 -66q-228 0 -228 369t228 369q103 0 154 -62.5t51 -157.5h-64q0 75 -37 120.5t-104 45.5q-80 0 -122 -74t-42 -241t42 -241t122 -74q66 0 104.5 53t43.5 147z" />
    <glyph glyph-name="D" unicode="D" horiz-adv-x="537" 
d="M56 0v714h172q149 0 204 -85.5t55 -271.5t-55 -271.5t-204 -85.5h-172zM120 660v-606h104q108 0 153.5 66t45.5 236q0 172 -45.5 238t-153.5 66h-104z" />
    <glyph glyph-name="E" unicode="E" horiz-adv-x="444" 
d="M56 0v714h354v-54h-290v-260h271v-54h-271v-292h299v-54h-363z" />
    <glyph glyph-name="F" unicode="F" 
d="M56 0v714h354v-54h-290v-260h271v-54h-271v-346h-64z" />
    <glyph glyph-name="G" unicode="G" horiz-adv-x="537" 
d="M427 310h-169v54h229v-364h-50v118h-2q-16 -59 -59.5 -94.5t-97.5 -35.5q-228 0 -228 369t228 369q98 0 148.5 -57t56.5 -155h-64q0 68 -36.5 113t-104.5 45q-80 0 -122 -74t-42 -241t42 -241t122 -74q72 0 110.5 64t38.5 189v15z" />
    <glyph glyph-name="H" unicode="H" horiz-adv-x="519" 
d="M399 0v356h-279v-356h-64v714h64v-304h279v304h64v-714h-64z" />
    <glyph glyph-name="I" unicode="I" horiz-adv-x="184" 
d="M60 0v714h64v-714h-64z" />
    <glyph glyph-name="J" unicode="J" horiz-adv-x="407" 
d="M19 180v29h64v-17q0 -75 22 -112.5t73 -37.5q56 0 82.5 31t26.5 113v528h64v-535q0 -93 -43 -142t-127 -49q-79 0 -120.5 45.5t-41.5 146.5z" />
    <glyph glyph-name="K" unicode="K" horiz-adv-x="480" 
d="M56 0v714h64v-374h2l273 374h68l-218 -298l242 -416h-68l-214 362l-85 -112v-250h-64z" />
    <glyph glyph-name="L" unicode="L" 
d="M56 0v714h64v-660h296v-54h-360z" />
    <glyph glyph-name="M" unicode="M" horiz-adv-x="686" 
d="M62 0v714h111l172 -634h2l172 634h105v-714h-64v654h-2l-185 -654h-60l-185 654h-2v-654h-64z" />
    <glyph glyph-name="N" unicode="N" horiz-adv-x="537" 
d="M56 0v714h86l273 -622h2v622h64v-714h-86l-273 622h-2v-622h-64z" />
    <glyph glyph-name="O" unicode="O" horiz-adv-x="556" 
d="M50 357q0 369 228 369t228 -369t-228 -369t-228 369zM114 357q0 -167 42 -241t122 -74t122 74t42 241t-42 241t-122 74t-122 -74t-42 -241z" />
    <glyph glyph-name="P" unicode="P" horiz-adv-x="480" 
d="M120 660v-296h109q69 0 110.5 35t41.5 113t-38 113t-114 35h-109zM56 0v714h193q100 0 148 -53.5t48 -148.5q0 -91 -51.5 -146.5t-166.5 -55.5h-107v-310h-64z" />
    <glyph glyph-name="Q" unicode="Q" horiz-adv-x="556" 
d="M479 -38l-72 70q-51 -44 -129 -44q-228 0 -228 369t228 369t228 -369q0 -197 -65 -287l73 -70zM368 74l-81 78l35 38l77 -75q43 78 43 242q0 167 -42 241t-122 74t-122 -74t-42 -241t42 -241t122 -74q54 0 90 32z" />
    <glyph glyph-name="R" unicode="R" horiz-adv-x="500" 
d="M56 0v714h213q88 0 136.5 -47.5t48.5 -131.5q0 -70 -31 -119t-98 -62v-2q65 -6 92.5 -45.5t29.5 -123.5l2 -78q2 -74 30 -105h-75q-17 29 -19 100l-2 60q-3 97 -30.5 131.5t-111.5 34.5h-121v-326h-64zM120 660v-280h110q77 0 118.5 35.5t41.5 104.5t-35 104.5t-118 35.5
h-117z" />
    <glyph glyph-name="S" unicode="S" horiz-adv-x="480" 
d="M433 531h-64q0 67 -32 104t-96 37q-63 0 -99 -36.5t-36 -91.5q0 -38 15 -66t39 -43t55.5 -28.5t63.5 -22t63.5 -23.5t55.5 -33.5t39 -52t15 -78.5q0 -101 -58 -155t-158 -54q-101 0 -154.5 54t-53.5 158v21h64v-27q0 -70 36.5 -111t105.5 -41q71 0 112.5 36.5t41.5 108.5
q0 43 -19 72.5t-49.5 45t-67.5 27.5t-74 25.5t-67.5 33.5t-49.5 57t-19 89q0 85 52.5 137t144.5 52q194 0 194 -195z" />
    <glyph glyph-name="T" unicode="T" horiz-adv-x="444" 
d="M190 0v660h-184v54h432v-54h-184v-660h-64z" />
    <glyph glyph-name="U" unicode="U" horiz-adv-x="500" 
d="M46 200v514h64v-513q0 -159 140 -159t140 159v513h64v-514q0 -110 -51.5 -161t-152.5 -51t-152.5 51t-51.5 161z" />
    <glyph glyph-name="V" unicode="V" horiz-adv-x="462" 
d="M191 0l-188 714h68l159 -646h2l159 646h68l-188 -714h-80z" />
    <glyph glyph-name="W" unicode="W" horiz-adv-x="722" 
d="M162 0l-151 714h64l125 -628h2l122 628h74l122 -628h2l125 628h64l-151 -714h-80l-118 628h-2l-118 -628h-80z" />
    <glyph glyph-name="X" unicode="X" horiz-adv-x="462" 
d="M395 0l-166 307l-166 -307h-64l196 364l-183 350h68l152 -290l154 290h64l-184 -350l197 -364h-68z" />
    <glyph glyph-name="Y" unicode="Y" horiz-adv-x="444" 
d="M190 0v286l-193 428h68l157 -356l157 356h68l-193 -428v-286h-64z" />
    <glyph glyph-name="Z" unicode="Z" horiz-adv-x="462" 
d="M22 0v60l348 600h-328v54h393v-60l-342 -600h347v-54h-418z" />
    <glyph glyph-name="bracketleft" unicode="[" horiz-adv-x="241" 
d="M83 -184v898h158v-50h-98v-798h98v-50h-158z" />
    <glyph glyph-name="backslash" unicode="\" horiz-adv-x="278" 
d="M-10 726h54l244 -738h-54z" />
    <glyph glyph-name="bracketright" unicode="]" horiz-adv-x="241" 
d="M0 -184v50h98v798h-98v50h158v-898h-158z" />
    <glyph glyph-name="asciicircum" unicode="^" horiz-adv-x="600" 
d="M502 243l-202 393l-202 -393h-54l231 453h50l231 -453h-54z" />
    <glyph glyph-name="underscore" unicode="_" horiz-adv-x="500" 
d="M0 -125v50h500v-50h-500z" />
    <glyph glyph-name="grave" unicode="`" horiz-adv-x="186" 
d="M-10 738h71l75 -141h-48z" />
    <glyph glyph-name="a" unicode="a" 
d="M107 373h-60q0 170 164 170q150 0 150 -141v-314q0 -44 31 -44h17v-44q-17 -6 -28 -6q-39 0 -58 13.5t-19 52.5v18h-2q-31 -90 -137 -90q-68 0 -101.5 39.5t-33.5 110.5q0 117 107 147l113 32q32 9 41.5 24t9.5 60q0 92 -92 92q-102 0 -102 -120zM301 188v112h-2
q-7 -21 -64 -35l-50 -13q-46 -12 -68.5 -38t-22.5 -72q0 -47 22.5 -75.5t61.5 -28.5q56 0 89.5 40t33.5 110z" />
    <glyph glyph-name="b" unicode="b" horiz-adv-x="444" 
d="M52 0v714h60v-263h2q10 43 42.5 67.5t81.5 24.5q170 0 170 -277q0 -278 -170 -278q-47 0 -82.5 27t-47.5 73h-2v-88h-54zM112 266q0 -71 9 -118.5t26.5 -70t36 -31t44.5 -8.5q25 0 43.5 8.5t36.5 31t27 70t9 118.5q0 70 -9 117.5t-26.5 70t-36.5 31t-44 8.5
q-26 0 -44.5 -8.5t-36 -31t-26.5 -69.5t-9 -118z" />
    <glyph glyph-name="c" unicode="c" horiz-adv-x="407" 
d="M317 176h60q-7 -86 -51.5 -137t-117.5 -51q-178 0 -178 278q0 137 47 207t136 70q75 0 117 -44t47 -126h-60q-5 62 -30.5 91t-73.5 29q-56 0 -87.5 -49t-31.5 -179q0 -58 6.5 -100.5t17 -66t26 -38t30 -18.5t33.5 -4q95 0 110 138z" />
    <glyph glyph-name="d" unicode="d" horiz-adv-x="444" 
d="M338 0v88h-2q-12 -46 -47.5 -73t-82.5 -27q-170 0 -170 278q0 277 170 277q49 0 81.5 -24.5t42.5 -67.5h2v263h60v-714h-54zM100 266q0 -71 9 -118.5t27 -70t36.5 -31t43.5 -8.5q26 0 44.5 8.5t36 31t26.5 70t9 118.5t-9 118t-26.5 69.5t-36 31t-44.5 8.5q-25 0 -44 -8.5
t-36.5 -31t-26.5 -70t-9 -117.5z" />
    <glyph glyph-name="e" unicode="e" 
d="M325 176h60q-7 -86 -52 -137t-119 -51q-178 0 -178 278q0 137 47 207t136 70q88 0 129.5 -62.5t41.5 -195.5v-22h-290v-25q0 -107 31.5 -153.5t81.5 -46.5q97 0 112 138zM100 313h226q-1 97 -28.5 138.5t-84.5 41.5t-84.5 -41.5t-28.5 -138.5z" />
    <glyph glyph-name="f" unicode="f" horiz-adv-x="241" 
d="M80 0v481h-73v50h73v63q0 63 23 95.5t93 32.5q22 0 38 -3v-50q-14 3 -29 3q-34 0 -49.5 -17t-15.5 -61v-63h94v-50h-94v-481h-60z" />
    <glyph glyph-name="g" unicode="g" horiz-adv-x="444" 
d="M332 449v82h54v-493q0 -222 -174 -222q-75 0 -116 35.5t-42 94.5h60q0 -36 29.5 -58t70.5 -22q55 0 83.5 37t28.5 108v84h-2q-14 -47 -47.5 -71t-76.5 -24q-72 0 -118 60t-46 206q0 277 170 277q44 0 77 -24.5t47 -69.5h2zM100 272q0 -122 28.5 -172t84.5 -50t84.5 50
t28.5 172q0 121 -28.5 171t-84.5 50t-84.5 -50t-28.5 -171z" />
    <glyph glyph-name="h" unicode="h" horiz-adv-x="444" 
d="M58 0v714h60v-257h2q11 40 46.5 63t83.5 23q64 0 100 -35t36 -107v-401h-60v384q0 109 -91 109q-53 0 -85 -37.5t-32 -98.5v-357h-60z" />
    <glyph glyph-name="i" unicode="i" horiz-adv-x="184" 
d="M62 0v531h60v-531h-60zM62 612v102h60v-102h-60z" />
    <glyph glyph-name="j" unicode="j" horiz-adv-x="184" 
d="M62 -42v573h60v-593q0 -122 -115 -122q-18 0 -33 3v50q21 -3 23 -3q34 0 49.5 19.5t15.5 72.5zM62 612v102h60v-102h-60z" />
    <glyph glyph-name="k" unicode="k" horiz-adv-x="407" 
d="M52 0v714h60v-447h2l206 264h74l-160 -197l189 -334h-74l-158 280l-79 -94v-186h-60z" />
    <glyph glyph-name="l" unicode="l" horiz-adv-x="184" 
d="M62 0v714h60v-714h-60z" />
    <glyph glyph-name="m" unicode="m" horiz-adv-x="686" 
d="M62 0v531h54v-74h2q41 86 135 86q47 0 76 -25.5t35 -67.5h2q38 93 135 93q58 0 90.5 -34t32.5 -103v-406h-60v397q0 96 -83 96q-46 0 -77 -38t-31 -98v-357h-60v397q0 96 -83 96q-46 0 -77 -38t-31 -98v-357h-60z" />
    <glyph glyph-name="n" unicode="n" horiz-adv-x="444" 
d="M58 0v531h54v-74h2q44 86 136 86q64 0 100 -35t36 -107v-401h-60v384q0 109 -91 109q-53 0 -85 -37.5t-32 -98.5v-357h-60z" />
    <glyph glyph-name="o" unicode="o" 
d="M30 266q0 137 47 207t136 70t136 -70t47 -207t-47 -207.5t-136 -70.5t-136 70.5t-47 207.5zM94 266q0 -228 119 -228t119 228q0 227 -119 227t-119 -227z" />
    <glyph glyph-name="p" unicode="p" horiz-adv-x="444" 
d="M52 -176v707h54v-76h2q15 39 48.5 63.5t82.5 24.5q87 0 128 -69t41 -209q0 -277 -170 -277q-49 0 -81.5 24.5t-42.5 67.5h-2v-256h-60zM344 265q0 132 -31 180t-83 48t-84 -47q-34 -48 -34 -181q0 -71 9 -118t26.5 -69.5t36 -31t44.5 -8.5q25 0 44 8.5t36.5 31t26.5 70
t9 117.5z" />
    <glyph glyph-name="q" unicode="q" horiz-adv-x="444" 
d="M332 -176v256h-2q-10 -43 -42.5 -67.5t-81.5 -24.5q-170 0 -170 277q0 140 41 209t128 69q49 0 82.5 -24.5t48.5 -63.5h2v76h54v-707h-60zM100 265q0 -70 9 -117.5t26.5 -70t36.5 -31t44 -8.5q26 0 44.5 8.5t36 31t26.5 69.5t9 118q0 133 -34 181q-32 47 -84 47t-83 -48
t-31 -180z" />
    <glyph glyph-name="r" unicode="r" horiz-adv-x="278" 
d="M58 0v531h60v-83h2q17 45 52.5 70t81.5 25q10 0 21 -3v-60q-15 3 -29 3q-54 0 -91 -39t-37 -112v-332h-60z" />
    <glyph glyph-name="s" unicode="s" horiz-adv-x="389" 
d="M226 231l-84 33q-102 39 -102 126q0 78 43 115.5t115 37.5q146 0 146 -148v-15h-60v15q0 98 -87 98q-97 0 -97 -90q0 -31 15 -52t57 -37l87 -33q99 -37 99 -135q0 -71 -41.5 -114.5t-122.5 -43.5q-84 0 -123.5 38.5t-39.5 126.5v17h60v-14q0 -118 102 -118
q48 0 76.5 25.5t28.5 69.5q0 36 -16.5 59.5t-55.5 38.5z" />
    <glyph glyph-name="t" unicode="t" horiz-adv-x="241" 
d="M80 87v394h-73v50h73v147h60v-147h94v-50h-94v-381q0 -31 13.5 -43.5t43.5 -12.5q17 0 37 6v-50q-11 -6 -42 -6q-62 0 -87 20t-25 73z" />
    <glyph glyph-name="u" unicode="u" horiz-adv-x="444" 
d="M58 130v401h60v-374q0 -64 22 -91.5t70 -27.5q51 0 83.5 37.5t32.5 98.5v357h60v-531h-54v74h-2q-44 -86 -136 -86q-64 0 -100 35t-36 107z" />
    <glyph glyph-name="v" unicode="v" horiz-adv-x="370" 
d="M155 0l-148 531h64l118 -463h2l108 463h64l-140 -531h-68z" />
    <glyph glyph-name="w" unicode="w" horiz-adv-x="592" 
d="M128 0l-118 531h64l90 -471h2l96 471h74l90 -471h2l90 471h64l-118 -531h-71l-96 471h-2l-96 -471h-71z" />
    <glyph glyph-name="x" unicode="x" horiz-adv-x="370" 
d="M296 0l-111 228l-111 -228h-68l143 274l-137 257h68l105 -210l105 210h68l-137 -257l143 -274h-68z" />
    <glyph glyph-name="y" unicode="y" horiz-adv-x="370" 
d="M160 -5l-153 536h64l119 -460h2l107 460h64l-155 -574q-21 -78 -50.5 -105.5t-90.5 -27.5q-16 0 -40 2v50q26 -2 39 -2q29 0 48 15.5t31 55.5z" />
    <glyph glyph-name="z" unicode="z" horiz-adv-x="352" 
d="M18 0v50l252 431h-239v50h303v-50l-252 -431h252v-50h-316z" />
    <glyph glyph-name="braceleft" unicode="{" horiz-adv-x="241" 
d="M91 419v175q0 120 107 120h51v-50h-50q-48 0 -48 -68v-186q1 -130 -68 -144v-2q69 -14 68 -144v-186q0 -68 48 -68h50v-50h-51q-107 0 -107 120v175q0 75 -12.5 101.5t-45.5 27.5v50q33 1 45.5 27.5t12.5 101.5z" />
    <glyph glyph-name="bar" unicode="|" horiz-adv-x="222" 
d="M86 -12v738h50v-738h-50z" />
    <glyph glyph-name="braceright" unicode="}" horiz-adv-x="241" 
d="M150 111v-175q0 -120 -107 -120h-51v50h50q48 0 48 68v186q-1 130 68 144v2q-69 14 -68 144v186q0 68 -48 68h-50v50h51q107 0 107 -120v-175q0 -75 12.5 -101.5t45.5 -27.5v-50q-33 -1 -45.5 -27.5t-12.5 -101.5z" />
    <glyph glyph-name="asciitilde" unicode="~" horiz-adv-x="600" 
d="M495 316l36 -36q-34 -47 -60.5 -66.5t-64.5 -19.5q-42 0 -102 33q-64 35 -115 35t-84 -72l-36 36q45 86 125 86q38 0 111 -32q82 -36 102 -36q23 0 43.5 17t44.5 55z" />
    <glyph glyph-name="uni00A0" unicode="&#xa0;" horiz-adv-x="240" 
 />
    <glyph glyph-name="exclamdown" unicode="&#xa1;" horiz-adv-x="240" 
d="M86 -172v226l12 302h44l12 -302v-226h-68zM86 440v102h68v-102h-68z" />
    <glyph glyph-name="cent" unicode="&#xa2;" horiz-adv-x="480" 
d="M232 38v455q-48 -7 -75 -57.5t-27 -170.5q0 -67 8 -113t23.5 -69.5t32 -33t38.5 -11.5zM232 -95v83q-166 9 -166 278q0 130 43 200t123 77v83h30v-83q70 -4 108.5 -48t43.5 -122h-60q-9 111 -92 120v-455q79 17 92 138h60q-6 -80 -46 -130.5t-106 -57.5v-83h-30z" />
    <glyph glyph-name="sterling" unicode="&#xa3;" horiz-adv-x="480" 
d="M444 504h-60q-8 154 -139 154q-58 0 -96 -32.5t-38 -88.5q0 -49 40 -122l24 -45h151v-44h-134q17 -27 17 -73q0 -107 -117 -199l2 -2q48 24 78 24q5 0 68 -18q54 -16 73 -16q49 0 120 50l27 -46q-63 -58 -155 -58q-25 0 -78.5 19t-79.5 19q-36 0 -96 -32l-31 49
q58 42 91.5 94t33.5 106q0 41 -21 83h-98v44h81l-34 65q-26 50 -26 96q0 82 58 129.5t144 47.5q91 0 143 -56t52 -148z" />
    <glyph glyph-name="currency" unicode="&#xa4;" horiz-adv-x="480" 
d="M57 128l-35 37l47 47q-49 60 -49 136q0 77 49 137l-47 47l35 36l47 -47q60 47 136 47q78 0 137 -48l47 48l35 -36l-47 -47q48 -59 48 -137q0 -76 -47 -136l46 -47l-35 -37l-47 49q-60 -49 -137 -49t-137 48zM74 348q0 -72 50 -121t116 -49t116 49t50 121t-50 121t-116 49
t-116 -49t-50 -121z" />
    <glyph glyph-name="yen" unicode="&#xa5;" horiz-adv-x="480" 
d="M208 0v174h-140v44h140v63l-11 24h-129v44h109l-162 347h68l157 -344l157 344h68l-162 -347h109v-44h-129l-11 -24v-63h140v-44h-140v-174h-64z" />
    <glyph glyph-name="brokenbar" unicode="&#xa6;" horiz-adv-x="222" 
d="M86 -12v270h50v-270h-50zM86 456v270h50v-270h-50z" />
    <glyph glyph-name="section" unicode="&#xa7;" horiz-adv-x="481" 
d="M405 577h-60q0 45 -28.5 72t-74.5 27q-45 0 -73.5 -25t-28.5 -62q0 -26 17 -47.5t60 -49.5l132 -86q54 -35 75.5 -68t21.5 -80q0 -44 -26.5 -81.5t-67.5 -57.5q60 -48 60 -118q0 -66 -44.5 -108.5t-121.5 -42.5q-78 0 -125.5 43t-47.5 109v20h60q0 -56 27.5 -89t83.5 -33
q46 0 75 26t29 65q0 35 -18.5 60.5t-64.5 54.5l-120 77q-60 39 -85 72.5t-25 81.5q0 43 30.5 82t72.5 55q-62 44 -62 112q0 65 48.5 102.5t120.5 37.5q75 0 117.5 -41t42.5 -108zM319 354l-143 93q-81 -44 -81 -106q0 -52 84 -107l132 -86q75 35 75 113q0 49 -67 93z" />
    <glyph glyph-name="dieresis" unicode="&#xa8;" horiz-adv-x="186" 
d="M-12 618v102h60v-102h-60zM138 618v102h60v-102h-60z" />
    <glyph glyph-name="copyright" unicode="&#xa9;" horiz-adv-x="800" 
d="M545 281h54q-17 -71 -67.5 -114.5t-119.5 -43.5q-100 0 -161.5 66.5t-61.5 167.5q0 103 59 168t161 65q75 0 127.5 -40.5t62.5 -112.5h-54q-10 45 -46 74t-90 29q-79 0 -122.5 -51.5t-43.5 -131.5q0 -75 46 -129.5t123 -54.5q52 0 88 30.5t45 77.5zM31 357q0 153 108 261
t261 108t261 -108t108 -261t-108 -261t-261 -108t-261 108t-108 261zM81 357q0 -132 93.5 -225.5t225.5 -93.5t225.5 93.5t93.5 225.5t-93.5 225.5t-225.5 93.5t-225.5 -93.5t-93.5 -225.5z" />
    <glyph glyph-name="ordfeminine" unicode="&#xaa;" horiz-adv-x="277" 
d="M65 602h-50q0 53 27.5 79.5t89.5 26.5q109 0 109 -85v-185q0 -27 20 -27h11v-38q-14 -6 -34 -6q-45 0 -45 40v14h-2q-19 -54 -89 -54q-47 0 -72 26.5t-25 67.5q0 75 79 95l74 19q20 5 26.5 13.5t6.5 30.5t-16.5 33.5t-43.5 11.5q-33 0 -49.5 -17t-16.5 -45zM191 499v52
h-2q-4 -11 -41 -21l-33 -8q-56 -14 -56 -55q0 -24 14.5 -40t37.5 -16q36 0 58 23.5t22 64.5z" />
    <glyph glyph-name="guillemotleft" unicode="&#xab;" horiz-adv-x="370" 
d="M188 254v60l125 139v-68l-89 -101l89 -101v-68zM57 254v60l125 139v-68l-89 -101l89 -101v-68z" />
    <glyph glyph-name="logicalnot" unicode="&#xac;" horiz-adv-x="600" 
d="M503 108v217h-456v50h506v-267h-50z" />
    <glyph glyph-name="uni00AD" unicode="&#xad;" horiz-adv-x="333" 
d="M58 311h217v-54h-217v54z" />
    <glyph glyph-name="registered" unicode="&#xae;" horiz-adv-x="800" 
d="M533 138l-130 195h-92v-195h-50v439h169q143 0 143 -122q0 -103 -110 -122l130 -195h-60zM311 533v-156h108q104 -2 104 79q0 77 -104 77h-108zM31 357q0 153 108 261t261 108t261 -108t108 -261t-108 -261t-261 -108t-261 108t-108 261zM81 357q0 -132 93.5 -225.5
t225.5 -93.5t225.5 93.5t93.5 225.5t-93.5 225.5t-225.5 93.5t-225.5 -93.5t-93.5 -225.5z" />
    <glyph glyph-name="macron" unicode="&#xaf;" horiz-adv-x="186" 
d="M-26 646v44h238v-44h-238z" />
    <glyph glyph-name="degree" unicode="&#xb0;" horiz-adv-x="400" 
d="M101 565q0 -41 29 -70t70 -29t70 29t29 70t-29 70t-70 29t-70 -29t-29 -70zM57 565q0 59 42 101t101 42t101 -42t42 -101t-42 -101t-101 -42t-101 42t-42 101z" />
    <glyph glyph-name="plusminus" unicode="&#xb1;" horiz-adv-x="600" 
d="M275 334v172h50v-172h228v-50h-228v-172h-50v172h-228v50h228zM47 0v50h506v-50h-506z" />
    <glyph glyph-name="twosuperior" unicode="&#xb2;" horiz-adv-x="312" 
d="M78 573h-54q2 135 137 135q55 0 90 -28.5t35 -86.5q0 -41 -15 -70t-58 -61l-50 -37q-70 -51 -82 -101h207v-44h-261q0 52 23 89.5t73 77.5l49 39q34 26 47 50t13 55q0 36 -21 54.5t-54 18.5q-35 0 -56 -23.5t-23 -67.5z" />
    <glyph glyph-name="threesuperior" unicode="&#xb3;" horiz-adv-x="312" 
d="M119 481v44h18q40 0 63.5 19t23.5 50q0 30 -19 50t-51 20q-31 0 -52.5 -20t-22.5 -54h-54q0 55 32.5 86.5t96.5 31.5q58 0 91 -28t33 -77q0 -37 -19 -63t-55 -34v-2q41 -5 64.5 -33t23.5 -68q0 -60 -35 -95t-103 -35q-129 0 -134 122h54q1 -30 22.5 -54t57.5 -24
q33 0 58.5 22t25.5 63q0 37 -25 58t-67 21h-27z" />
    <glyph glyph-name="acute" unicode="&#xb4;" horiz-adv-x="186" 
d="M125 738h71l-98 -141h-48z" />
    <glyph glyph-name="mu" unicode="&#xb5;" horiz-adv-x="444" 
d="M58 -176v707h60v-374q0 -64 22 -91.5t70 -27.5q51 0 83.5 37.5t32.5 98.5v357h60v-531h-54v74h-2q-44 -86 -136 -86q-58 0 -74 24h-2v-188h-60z" />
    <glyph glyph-name="paragraph" unicode="&#xb6;" horiz-adv-x="481" 
d="M194 -138v472q-67 0 -115.5 53.5t-48.5 128.5q0 94 52 146t137 52h182v-852h-50v808h-107v-808h-50z" />
    <glyph glyph-name="periodcentered" unicode="&#xb7;" horiz-adv-x="240" 
d="M65 328q0 22 16.5 38.5t38.5 16.5t38.5 -16.5t16.5 -38.5t-16.5 -38.5t-38.5 -16.5t-38.5 16.5t-16.5 38.5z" />
    <glyph glyph-name="cedilla" unicode="&#xb8;" horiz-adv-x="186" 
d="M90 0h37l-43 -56l2 -1q11 5 34 5q32 0 54.5 -19.5t22.5 -47.5q0 -39 -33.5 -62t-72.5 -23q-49 0 -89 20l12 31q30 -15 60 -15q34 0 51.5 12.5t17.5 31.5q0 18 -15.5 27t-37.5 9q-28 0 -44 -10l-13 17z" />
    <glyph glyph-name="onesuperior" unicode="&#xb9;" horiz-adv-x="312" 
d="M144 280v320h-108v36q112 1 117 72h45v-428h-54z" />
    <glyph glyph-name="ordmasculine" unicode="&#xba;" horiz-adv-x="277" 
d="M9 538q0 170 129 170q130 0 130 -170q0 -171 -130 -171q-129 0 -129 171zM63 538q0 -65 21 -96t54 -31q34 0 55 31t21 96t-21 95.5t-55 30.5q-33 0 -54 -31t-21 -95z" />
    <glyph glyph-name="guillemotright" unicode="&#xbb;" horiz-adv-x="370" 
d="M57 115v68l89 101l-89 101v68l125 -139v-60zM188 115v68l89 101l-89 101v68l125 -139v-60z" />
    <glyph glyph-name="onequarter" unicode="&#xbc;" horiz-adv-x="721" 
d="M567 0v110h-186v36l176 282h60v-282h54v-36h-54v-110h-50zM425 146h142v214h-2zM90 -30l451 756h50l-451 -756h-50zM144 280v320h-108v36q112 1 117 72h45v-428h-54z" />
    <glyph glyph-name="onehalf" unicode="&#xbd;" horiz-adv-x="721" 
d="M60 -30l451 756h50l-451 -756h-50zM144 280v320h-108v36q112 1 117 72h45v-428h-54zM447 293h-54q2 135 137 135q55 0 90 -28.5t35 -86.5q0 -41 -15 -70t-58 -61l-50 -37q-70 -51 -82 -101h207v-44h-261q0 52 23 89.5t73 77.5l49 39q34 26 47 50t13 55q0 36 -21 54.5
t-54 18.5q-35 0 -56 -23.5t-23 -67.5z" />
    <glyph glyph-name="threequarters" unicode="&#xbe;" horiz-adv-x="721" 
d="M567 0v110h-186v36l176 282h60v-282h54v-36h-54v-110h-50zM425 146h142v214h-2zM120 -30l451 756h50l-451 -756h-50zM119 481v44h18q40 0 63.5 19t23.5 50q0 30 -19 50t-51 20q-31 0 -52.5 -20t-22.5 -54h-54q0 55 32.5 86.5t96.5 31.5q58 0 91 -28t33 -77q0 -37 -19 -63
t-55 -34v-2q41 -5 64.5 -33t23.5 -68q0 -60 -35 -95t-103 -35q-129 0 -134 122h54q1 -30 22.5 -54t57.5 -24q33 0 58.5 22t25.5 63q0 37 -25 58t-67 21h-27z" />
    <glyph glyph-name="questiondown" unicode="&#xbf;" 
d="M198 357h60v-35q0 -55 -13.5 -87t-52.5 -73l-42 -45q-52 -56 -52 -127q0 -54 31 -89t81 -35q128 0 128 168h64q-1 -98 -48.5 -158t-139.5 -60q-83 0 -131.5 48t-48.5 127q0 88 65 157l43 46q31 33 43.5 62t12.5 73v28zM194 440v102h68v-102h-68z" />
    <glyph glyph-name="Agrave" unicode="&#xc0;" horiz-adv-x="500" 
d="M139 262h222l-110 402h-2zM-1 0l211 714h80l211 -714h-68l-58 208h-250l-58 -208h-68zM147 889h71l75 -141h-48z" />
    <glyph glyph-name="Aacute" unicode="&#xc1;" horiz-adv-x="500" 
d="M139 262h222l-110 402h-2zM-1 0l211 714h80l211 -714h-68l-58 208h-250l-58 -208h-68zM282 889h71l-98 -141h-48z" />
    <glyph glyph-name="Acircumflex" unicode="&#xc2;" horiz-adv-x="500" 
d="M139 262h222l-110 402h-2zM-1 0l211 714h80l211 -714h-68l-58 208h-250l-58 -208h-68zM184 748h-60l96 141h60l96 -141h-60l-66 100z" />
    <glyph glyph-name="Atilde" unicode="&#xc3;" horiz-adv-x="500" 
d="M139 262h222l-110 402h-2zM-1 0l211 714h80l211 -714h-68l-58 208h-250l-58 -208h-68zM340 869h44q-1 -35 -22.5 -66.5t-54.5 -31.5q-23 0 -49 15l-38 21q-16 8 -24 8q-13 0 -23 -14.5t-13 -33.5h-44q2 35 24 66.5t52 31.5q25 0 57 -18l26 -15q18 -11 30 -11
q15 0 25.5 16.5t9.5 31.5z" />
    <glyph glyph-name="Adieresis" unicode="&#xc4;" horiz-adv-x="500" 
d="M139 262h222l-110 402h-2zM-1 0l211 714h80l211 -714h-68l-58 208h-250l-58 -208h-68zM145 769v102h60v-102h-60zM295 769v102h60v-102h-60z" />
    <glyph glyph-name="Aring" unicode="&#xc5;" horiz-adv-x="500" 
d="M139 262h222l-110 402h-2zM-1 0l211 714h80l211 -714h-68l-58 208h-250l-58 -208h-68zM155 832q0 39 28 67t67 28t67 -28t28 -67t-28 -67t-67 -28t-67 28t-28 67zM191 832q0 -25 17 -42t42 -17t42 17t17 42t-17 42t-42 17t-42 -17t-17 -42z" />
    <glyph glyph-name="AE" unicode="&#xc6;" horiz-adv-x="704" 
d="M332 0v208h-191l-81 -208h-68l290 714h395v-54h-281v-260h262v-54h-262v-292h290v-54h-354zM161 262h171v398h-10z" />
    <glyph glyph-name="Ccedilla" unicode="&#xc7;" horiz-adv-x="519" 
d="M218 -81l49 69q-217 11 -217 369q0 369 228 369q103 0 154 -62.5t51 -157.5h-64q0 75 -37 120.5t-104 45.5q-80 0 -122 -74t-42 -241t42 -241t122 -74q66 0 104.5 53t43.5 147h64q-6 -113 -54 -178.5t-132 -73.5l-35 -46l2 -1q11 5 34 5q32 0 54.5 -19.5t22.5 -47.5
q0 -39 -33.5 -62t-72.5 -23q-49 0 -89 20l12 31q30 -15 60 -15q34 0 51.5 12.5t17.5 31.5q0 18 -15.5 27t-37.5 9q-28 0 -44 -10z" />
    <glyph glyph-name="Egrave" unicode="&#xc8;" horiz-adv-x="444" 
d="M56 0v714h354v-54h-290v-260h271v-54h-271v-292h299v-54h-363zM137 889h71l75 -141h-48z" />
    <glyph glyph-name="Eacute" unicode="&#xc9;" horiz-adv-x="444" 
d="M56 0v714h354v-54h-290v-260h271v-54h-271v-292h299v-54h-363zM272 889h71l-98 -141h-48z" />
    <glyph glyph-name="Ecircumflex" unicode="&#xca;" horiz-adv-x="444" 
d="M56 0v714h354v-54h-290v-260h271v-54h-271v-292h299v-54h-363zM174 748h-60l96 141h60l96 -141h-60l-66 100z" />
    <glyph glyph-name="Edieresis" unicode="&#xcb;" horiz-adv-x="444" 
d="M56 0v714h354v-54h-290v-260h271v-54h-271v-292h299v-54h-363zM135 769v102h60v-102h-60zM285 769v102h60v-102h-60z" />
    <glyph glyph-name="Igrave" unicode="&#xcc;" horiz-adv-x="184" 
d="M60 0v714h64v-714h-64zM-11 889h71l75 -141h-48z" />
    <glyph glyph-name="Iacute" unicode="&#xcd;" horiz-adv-x="184" 
d="M60 0v714h64v-714h-64zM124 889h71l-98 -141h-48z" />
    <glyph glyph-name="Icircumflex" unicode="&#xce;" horiz-adv-x="184" 
d="M60 0v714h64v-714h-64zM26 748h-60l96 141h60l96 -141h-60l-66 100z" />
    <glyph glyph-name="Idieresis" unicode="&#xcf;" horiz-adv-x="184" 
d="M60 0v714h64v-714h-64zM-13 769v102h60v-102h-60zM137 769v102h60v-102h-60z" />
    <glyph glyph-name="Eth" unicode="&#xd0;" horiz-adv-x="537" 
d="M56 0v346h-56v54h56v314h172q149 0 204 -85.5t55 -271.5t-55 -271.5t-204 -85.5h-172zM120 400h160v-54h-160v-292h104q108 0 153.5 66t45.5 236q0 172 -45.5 238t-153.5 66h-104v-260z" />
    <glyph glyph-name="Ntilde" unicode="&#xd1;" horiz-adv-x="537" 
d="M56 0v714h86l273 -622h2v622h64v-714h-86l-273 622h-2v-622h-64zM359 869h44q-1 -35 -22.5 -66.5t-54.5 -31.5q-24 0 -49 15l-38 21q-16 8 -24 8q-13 0 -23 -14.5t-13 -33.5h-44q2 35 24 66.5t52 31.5q25 0 57 -18l26 -15q18 -11 30 -11q15 0 25.5 16.5t9.5 31.5z" />
    <glyph glyph-name="Ograve" unicode="&#xd2;" horiz-adv-x="556" 
d="M50 357q0 369 228 369t228 -369t-228 -369t-228 369zM114 357q0 -167 42 -241t122 -74t122 74t42 241t-42 241t-122 74t-122 -74t-42 -241zM175 889h71l75 -141h-48z" />
    <glyph glyph-name="Oacute" unicode="&#xd3;" horiz-adv-x="556" 
d="M50 357q0 369 228 369t228 -369t-228 -369t-228 369zM114 357q0 -167 42 -241t122 -74t122 74t42 241t-42 241t-122 74t-122 -74t-42 -241zM310 889h71l-98 -141h-48z" />
    <glyph glyph-name="Ocircumflex" unicode="&#xd4;" horiz-adv-x="556" 
d="M50 357q0 369 228 369t228 -369t-228 -369t-228 369zM114 357q0 -167 42 -241t122 -74t122 74t42 241t-42 241t-122 74t-122 -74t-42 -241zM212 748h-60l96 141h60l96 -141h-60l-66 100z" />
    <glyph glyph-name="Otilde" unicode="&#xd5;" horiz-adv-x="556" 
d="M50 357q0 369 228 369t228 -369t-228 -369t-228 369zM114 357q0 -167 42 -241t122 -74t122 74t42 241t-42 241t-122 74t-122 -74t-42 -241zM368 869h44q-1 -35 -22.5 -66.5t-54.5 -31.5q-23 0 -49 15l-38 21q-16 8 -24 8q-13 0 -23 -14.5t-13 -33.5h-44q2 35 24 66.5
t52 31.5q25 0 57 -18l26 -15q18 -11 30 -11q15 0 25.5 16.5t9.5 31.5z" />
    <glyph glyph-name="Odieresis" unicode="&#xd6;" horiz-adv-x="556" 
d="M50 357q0 369 228 369t228 -369t-228 -369t-228 369zM114 357q0 -167 42 -241t122 -74t122 74t42 241t-42 241t-122 74t-122 -74t-42 -241zM173 769v102h60v-102h-60zM323 769v102h60v-102h-60z" />
    <glyph glyph-name="multiply" unicode="&#xd7;" horiz-adv-x="600" 
d="M490 28l-190 190l-190 -190l-36 35l191 190l-191 191l36 35l190 -190l190 190l36 -35l-191 -191l191 -190z" />
    <glyph glyph-name="Oslash" unicode="&#xd8;" horiz-adv-x="556" 
d="M155 119l219 515q-37 38 -96 38q-80 0 -122 -74t-42 -241q0 -162 41 -238zM401 595l-218 -515q35 -38 95 -38q80 0 122 74t42 241q0 161 -41 238zM133 -42l-37 16l33 78q-79 87 -79 305q0 369 228 369q71 0 118 -34l27 64l37 -14l-33 -79q79 -88 79 -306
q0 -369 -228 -369q-69 0 -118 34z" />
    <glyph glyph-name="Ugrave" unicode="&#xd9;" horiz-adv-x="500" 
d="M46 200v514h64v-513q0 -159 140 -159t140 159v513h64v-514q0 -110 -51.5 -161t-152.5 -51t-152.5 51t-51.5 161zM147 889h71l75 -141h-48z" />
    <glyph glyph-name="Uacute" unicode="&#xda;" horiz-adv-x="500" 
d="M46 200v514h64v-513q0 -159 140 -159t140 159v513h64v-514q0 -110 -51.5 -161t-152.5 -51t-152.5 51t-51.5 161zM282 889h71l-98 -141h-48z" />
    <glyph glyph-name="Ucircumflex" unicode="&#xdb;" horiz-adv-x="500" 
d="M46 200v514h64v-513q0 -159 140 -159t140 159v513h64v-514q0 -110 -51.5 -161t-152.5 -51t-152.5 51t-51.5 161zM184 748h-60l96 141h60l96 -141h-60l-66 100z" />
    <glyph glyph-name="Udieresis" unicode="&#xdc;" horiz-adv-x="500" 
d="M46 200v514h64v-513q0 -159 140 -159t140 159v513h64v-514q0 -110 -51.5 -161t-152.5 -51t-152.5 51t-51.5 161zM145 769v102h60v-102h-60zM295 769v102h60v-102h-60z" />
    <glyph glyph-name="Yacute" unicode="&#xdd;" horiz-adv-x="444" 
d="M190 0v286l-193 428h68l157 -356l157 356h68l-193 -428v-286h-64zM254 889h71l-98 -141h-48z" />
    <glyph glyph-name="Thorn" unicode="&#xde;" horiz-adv-x="480" 
d="M120 520v-296h109q69 0 110.5 35t41.5 113t-41.5 113t-110.5 35h-109zM56 0v714h64v-140h134q96 0 143.5 -54.5t47.5 -147.5q0 -91 -51.5 -146.5t-166.5 -55.5h-107v-170h-64z" />
    <glyph glyph-name="germandbls" unicode="&#xdf;" horiz-adv-x="444" 
d="M52 0v539q0 89 44 136t123 47q75 0 118 -43.5t43 -121.5q0 -51 -25 -92.5t-79 -52.5v-2q41 -5 70 -25t42.5 -50t19.5 -58.5t6 -60.5q0 -104 -51.5 -163t-140.5 -59q-26 0 -41 6v50q12 -6 33 -6q60 0 98 44.5t38 131.5q0 160 -142 160h-22v50h17q53 0 83 31.5t30 92.5
q0 53 -25.5 85.5t-74.5 32.5q-104 0 -104 -139v-533h-60z" />
    <glyph glyph-name="agrave" unicode="&#xe0;" 
d="M107 373h-60q0 170 164 170q150 0 150 -141v-314q0 -44 31 -44h17v-44q-17 -6 -28 -6q-39 0 -58 13.5t-19 52.5v18h-2q-31 -90 -137 -90q-68 0 -101.5 39.5t-33.5 110.5q0 117 107 147l113 32q32 9 41.5 24t9.5 60q0 92 -92 92q-102 0 -102 -120zM301 188v112h-2
q-7 -21 -64 -35l-50 -13q-46 -12 -68.5 -38t-22.5 -72q0 -47 22.5 -75.5t61.5 -28.5q56 0 89.5 40t33.5 110zM110 738h71l75 -141h-48z" />
    <glyph glyph-name="aacute" unicode="&#xe1;" 
d="M107 373h-60q0 170 164 170q150 0 150 -141v-314q0 -44 31 -44h17v-44q-17 -6 -28 -6q-39 0 -58 13.5t-19 52.5v18h-2q-31 -90 -137 -90q-68 0 -101.5 39.5t-33.5 110.5q0 117 107 147l113 32q32 9 41.5 24t9.5 60q0 92 -92 92q-102 0 -102 -120zM301 188v112h-2
q-7 -21 -64 -35l-50 -13q-46 -12 -68.5 -38t-22.5 -72q0 -47 22.5 -75.5t61.5 -28.5q56 0 89.5 40t33.5 110zM245 738h71l-98 -141h-48z" />
    <glyph glyph-name="acircumflex" unicode="&#xe2;" 
d="M107 373h-60q0 170 164 170q150 0 150 -141v-314q0 -44 31 -44h17v-44q-17 -6 -28 -6q-39 0 -58 13.5t-19 52.5v18h-2q-31 -90 -137 -90q-68 0 -101.5 39.5t-33.5 110.5q0 117 107 147l113 32q32 9 41.5 24t9.5 60q0 92 -92 92q-102 0 -102 -120zM301 188v112h-2
q-7 -21 -64 -35l-50 -13q-46 -12 -68.5 -38t-22.5 -72q0 -47 22.5 -75.5t61.5 -28.5q56 0 89.5 40t33.5 110zM147 597h-60l96 141h60l96 -141h-60l-66 100z" />
    <glyph glyph-name="atilde" unicode="&#xe3;" 
d="M107 373h-60q0 170 164 170q150 0 150 -141v-314q0 -44 31 -44h17v-44q-17 -6 -28 -6q-39 0 -58 13.5t-19 52.5v18h-2q-31 -90 -137 -90q-68 0 -101.5 39.5t-33.5 110.5q0 117 107 147l113 32q32 9 41.5 24t9.5 60q0 92 -92 92q-102 0 -102 -120zM301 188v112h-2
q-7 -21 -64 -35l-50 -13q-46 -12 -68.5 -38t-22.5 -72q0 -47 22.5 -75.5t61.5 -28.5q56 0 89.5 40t33.5 110zM303 718h44q-1 -35 -22.5 -66.5t-54.5 -31.5q-24 0 -49 15l-38 21q-16 8 -24 8q-13 0 -23 -14.5t-13 -33.5h-44q2 35 24 66.5t52 31.5q25 0 57 -18l26 -15
q18 -11 30 -11q15 0 25.5 16.5t9.5 31.5z" />
    <glyph glyph-name="adieresis" unicode="&#xe4;" 
d="M107 373h-60q0 170 164 170q150 0 150 -141v-314q0 -44 31 -44h17v-44q-17 -6 -28 -6q-39 0 -58 13.5t-19 52.5v18h-2q-31 -90 -137 -90q-68 0 -101.5 39.5t-33.5 110.5q0 117 107 147l113 32q32 9 41.5 24t9.5 60q0 92 -92 92q-102 0 -102 -120zM301 188v112h-2
q-7 -21 -64 -35l-50 -13q-46 -12 -68.5 -38t-22.5 -72q0 -47 22.5 -75.5t61.5 -28.5q56 0 89.5 40t33.5 110zM108 618v102h60v-102h-60zM258 618v102h60v-102h-60z" />
    <glyph glyph-name="aring" unicode="&#xe5;" 
d="M107 373h-60q0 170 164 170q150 0 150 -141v-314q0 -44 31 -44h17v-44q-17 -6 -28 -6q-39 0 -58 13.5t-19 52.5v18h-2q-31 -90 -137 -90q-68 0 -101.5 39.5t-33.5 110.5q0 117 107 147l113 32q32 9 41.5 24t9.5 60q0 92 -92 92q-102 0 -102 -120zM301 188v112h-2
q-7 -21 -64 -35l-50 -13q-46 -12 -68.5 -38t-22.5 -72q0 -47 22.5 -75.5t61.5 -28.5q56 0 89.5 40t33.5 110zM118 681q0 39 28 67t67 28t67 -28t28 -67t-28 -67t-67 -28t-67 28t-28 67zM154 681q0 -25 17 -42t42 -17t42 17t17 42t-17 42t-42 17t-42 -17t-17 -42z" />
    <glyph glyph-name="ae" unicode="&#xe6;" horiz-adv-x="648" 
d="M107 373h-60q0 83 39.5 126.5t117.5 43.5q48 0 82 -21.5t44 -64.5h2q13 41 47.5 63.5t76.5 22.5q88 0 125 -67t37 -213h-274v-29q0 -97 28.5 -146.5t75.5 -49.5q44 0 74 39t31 99h60q-5 -90 -48 -139t-115 -49q-102 0 -137 110h-2q-30 -110 -146 -110q-68 0 -101.5 39.5
t-33.5 110.5q0 66 29.5 99.5t101.5 52.5l72 19q30 9 40.5 24t10.5 54q0 57 -19 81.5t-63 24.5q-95 0 -95 -120zM237 264l-62 -17q-45 -12 -63 -36.5t-18 -68.5q0 -47 22.5 -75.5t61.5 -28.5q41 0 73.5 34.5t32.5 102.5v111h-2q-9 -13 -45 -22zM344 313h210q-1 180 -105 180
q-102 0 -105 -180z" />
    <glyph glyph-name="ccedilla" unicode="&#xe7;" horiz-adv-x="407" 
d="M153 -81l49 69q-172 5 -172 278q0 137 47 207t136 70q75 0 117 -44t47 -126h-60q-5 62 -30.5 91t-73.5 29q-56 0 -87.5 -49t-31.5 -179q0 -58 6.5 -100.5t17 -66t26 -38t30 -18.5t33.5 -4q95 0 110 138h60q-6 -76 -42 -125.5t-95 -60.5l-36 -46l2 -1q11 5 34 5
q32 0 54.5 -19.5t22.5 -47.5q0 -39 -33.5 -62t-72.5 -23q-49 0 -89 20l12 31q30 -15 60 -15q34 0 51.5 12.5t17.5 31.5q0 18 -15.5 27t-37.5 9q-28 0 -44 -10z" />
    <glyph glyph-name="egrave" unicode="&#xe8;" 
d="M325 176h60q-7 -86 -52 -137t-119 -51q-178 0 -178 278q0 137 47 207t136 70q88 0 129.5 -62.5t41.5 -195.5v-22h-290v-25q0 -107 31.5 -153.5t81.5 -46.5q97 0 112 138zM100 313h226q-1 97 -28.5 138.5t-84.5 41.5t-84.5 -41.5t-28.5 -138.5zM115 738h71l75 -141h-48z
" />
    <glyph glyph-name="eacute" unicode="&#xe9;" 
d="M325 176h60q-7 -86 -52 -137t-119 -51q-178 0 -178 278q0 137 47 207t136 70q88 0 129.5 -62.5t41.5 -195.5v-22h-290v-25q0 -107 31.5 -153.5t81.5 -46.5q97 0 112 138zM100 313h226q-1 97 -28.5 138.5t-84.5 41.5t-84.5 -41.5t-28.5 -138.5zM250 738h71l-98 -141h-48z
" />
    <glyph glyph-name="ecircumflex" unicode="&#xea;" 
d="M325 176h60q-7 -86 -52 -137t-119 -51q-178 0 -178 278q0 137 47 207t136 70q88 0 129.5 -62.5t41.5 -195.5v-22h-290v-25q0 -107 31.5 -153.5t81.5 -46.5q97 0 112 138zM100 313h226q-1 97 -28.5 138.5t-84.5 41.5t-84.5 -41.5t-28.5 -138.5zM152 597h-60l96 141h60
l96 -141h-60l-66 100z" />
    <glyph glyph-name="edieresis" unicode="&#xeb;" 
d="M325 176h60q-7 -86 -52 -137t-119 -51q-178 0 -178 278q0 137 47 207t136 70q88 0 129.5 -62.5t41.5 -195.5v-22h-290v-25q0 -107 31.5 -153.5t81.5 -46.5q97 0 112 138zM100 313h226q-1 97 -28.5 138.5t-84.5 41.5t-84.5 -41.5t-28.5 -138.5zM113 618v102h60v-102h-60z
M263 618v102h60v-102h-60z" />
    <glyph glyph-name="igrave" unicode="&#xec;" horiz-adv-x="184" 
d="M62 0v531h60v-531h-60zM-11 738h71l75 -141h-48z" />
    <glyph glyph-name="iacute" unicode="&#xed;" horiz-adv-x="184" 
d="M62 0v531h60v-531h-60zM124 738h71l-98 -141h-48z" />
    <glyph glyph-name="icircumflex" unicode="&#xee;" horiz-adv-x="184" 
d="M62 0v531h60v-531h-60zM26 597h-60l96 141h60l96 -141h-60l-66 100z" />
    <glyph glyph-name="idieresis" unicode="&#xef;" horiz-adv-x="184" 
d="M62 0v531h60v-531h-60zM-13 618v102h60v-102h-60zM137 618v102h60v-102h-60z" />
    <glyph glyph-name="eth" unicode="&#xf0;" 
d="M94 260q0 -222 119 -222t119 222q0 116 -32.5 168.5t-86.5 52.5t-86.5 -52.5t-32.5 -168.5zM118 598l-38 32l74 44q-25 28 -73 68l47 32q45 -38 76 -72l72 42l36 -30l-75 -45q159 -173 159 -403q0 -137 -47 -207.5t-136 -70.5q-88 0 -135.5 69.5t-47.5 202.5
q0 130 47 200.5t125 70.5q61 0 98 -53l2 2q-52 89 -115 159z" />
    <glyph glyph-name="ntilde" unicode="&#xf1;" horiz-adv-x="444" 
d="M58 0v531h54v-74h2q44 86 136 86q64 0 100 -35t36 -107v-401h-60v384q0 109 -91 109q-53 0 -85 -37.5t-32 -98.5v-357h-60zM312 718h44q-1 -35 -22.5 -66.5t-54.5 -31.5q-23 0 -49 15l-38 21q-16 8 -24 8q-13 0 -23 -14.5t-13 -33.5h-44q2 35 24 66.5t52 31.5
q25 0 57 -18l26 -15q18 -11 30 -11q15 0 25.5 16.5t9.5 31.5z" />
    <glyph glyph-name="ograve" unicode="&#xf2;" 
d="M30 266q0 137 47 207t136 70t136 -70t47 -207t-47 -207.5t-136 -70.5t-136 70.5t-47 207.5zM94 266q0 -228 119 -228t119 228q0 227 -119 227t-119 -227zM110 738h71l75 -141h-48z" />
    <glyph glyph-name="oacute" unicode="&#xf3;" 
d="M30 266q0 137 47 207t136 70t136 -70t47 -207t-47 -207.5t-136 -70.5t-136 70.5t-47 207.5zM94 266q0 -228 119 -228t119 228q0 227 -119 227t-119 -227zM245 738h71l-98 -141h-48z" />
    <glyph glyph-name="ocircumflex" unicode="&#xf4;" 
d="M30 266q0 137 47 207t136 70t136 -70t47 -207t-47 -207.5t-136 -70.5t-136 70.5t-47 207.5zM94 266q0 -228 119 -228t119 228q0 227 -119 227t-119 -227zM147 597h-60l96 141h60l96 -141h-60l-66 100z" />
    <glyph glyph-name="otilde" unicode="&#xf5;" 
d="M30 266q0 137 47 207t136 70t136 -70t47 -207t-47 -207.5t-136 -70.5t-136 70.5t-47 207.5zM94 266q0 -228 119 -228t119 228q0 227 -119 227t-119 -227zM303 718h44q-1 -35 -22.5 -66.5t-54.5 -31.5q-24 0 -49 15l-38 21q-16 8 -24 8q-13 0 -23 -14.5t-13 -33.5h-44
q2 35 24 66.5t52 31.5q25 0 57 -18l26 -15q18 -11 30 -11q15 0 25.5 16.5t9.5 31.5z" />
    <glyph glyph-name="odieresis" unicode="&#xf6;" 
d="M30 266q0 137 47 207t136 70t136 -70t47 -207t-47 -207.5t-136 -70.5t-136 70.5t-47 207.5zM94 266q0 -228 119 -228t119 228q0 227 -119 227t-119 -227zM108 618v102h60v-102h-60zM258 618v102h60v-102h-60z" />
    <glyph glyph-name="divide" unicode="&#xf7;" horiz-adv-x="600" 
d="M47 228v50h506v-50h-506zM245 459q0 23 16.5 39t38.5 16t38.5 -16t16.5 -39t-16.5 -39t-38.5 -16t-38.5 16t-16.5 39zM245 47q0 23 16.5 39t38.5 16t38.5 -16t16.5 -39t-16.5 -39t-38.5 -16t-38.5 16t-16.5 39z" />
    <glyph glyph-name="oslash" unicode="&#xf8;" 
d="M122 101l154 368q-25 24 -63 24q-119 0 -119 -227q0 -109 28 -165zM304 430l-154 -367q25 -25 63 -25q119 0 119 228q0 110 -28 164zM100 -55l-37 15l32 76q-65 68 -65 230q0 137 47 207t136 70q50 0 85 -22l27 65l38 -16l-32 -75q65 -68 65 -229q0 -137 -47 -207.5
t-136 -70.5q-51 0 -85 23z" />
    <glyph glyph-name="ugrave" unicode="&#xf9;" horiz-adv-x="444" 
d="M58 130v401h60v-374q0 -64 22 -91.5t70 -27.5q51 0 83.5 37.5t32.5 98.5v357h60v-531h-54v74h-2q-44 -86 -136 -86q-64 0 -100 35t-36 107zM119 738h71l75 -141h-48z" />
    <glyph glyph-name="uacute" unicode="&#xfa;" horiz-adv-x="444" 
d="M58 130v401h60v-374q0 -64 22 -91.5t70 -27.5q51 0 83.5 37.5t32.5 98.5v357h60v-531h-54v74h-2q-44 -86 -136 -86q-64 0 -100 35t-36 107zM254 738h71l-98 -141h-48z" />
    <glyph glyph-name="ucircumflex" unicode="&#xfb;" horiz-adv-x="444" 
d="M58 130v401h60v-374q0 -64 22 -91.5t70 -27.5q51 0 83.5 37.5t32.5 98.5v357h60v-531h-54v74h-2q-44 -86 -136 -86q-64 0 -100 35t-36 107zM156 597h-60l96 141h60l96 -141h-60l-66 100z" />
    <glyph glyph-name="udieresis" unicode="&#xfc;" horiz-adv-x="444" 
d="M58 130v401h60v-374q0 -64 22 -91.5t70 -27.5q51 0 83.5 37.5t32.5 98.5v357h60v-531h-54v74h-2q-44 -86 -136 -86q-64 0 -100 35t-36 107zM117 618v102h60v-102h-60zM267 618v102h60v-102h-60z" />
    <glyph glyph-name="yacute" unicode="&#xfd;" horiz-adv-x="370" 
d="M160 -5l-153 536h64l119 -460h2l107 460h64l-155 -574q-21 -78 -50.5 -105.5t-90.5 -27.5q-16 0 -40 2v50q26 -2 39 -2q29 0 48 15.5t31 55.5zM217 738h71l-98 -141h-48z" />
    <glyph glyph-name="thorn" unicode="&#xfe;" horiz-adv-x="444" 
d="M52 -176v890h60v-271h2q12 45 46.5 72.5t77.5 27.5q170 0 170 -278q0 -277 -170 -277q-49 0 -81.5 24.5t-42.5 67.5h-2v-256h-60zM112 265q0 -71 9 -118t26.5 -69.5t36 -31t44.5 -8.5q25 0 44 8.5t36.5 31t26.5 70t9 117.5q0 71 -9 118.5t-27 70t-36.5 31t-43.5 8.5
q-26 0 -44.5 -8.5t-36 -31t-26.5 -70t-9 -118.5z" />
    <glyph glyph-name="ydieresis" unicode="&#xff;" horiz-adv-x="370" 
d="M160 -5l-153 536h64l119 -460h2l107 460h64l-155 -574q-21 -78 -50.5 -105.5t-90.5 -27.5q-16 0 -40 2v50q26 -2 39 -2q29 0 48 15.5t31 55.5zM80 618v102h60v-102h-60zM230 618v102h60v-102h-60z" />
    <glyph glyph-name="dotlessi" unicode="&#x131;" horiz-adv-x="184" 
d="M62 0v531h60v-531h-60z" />
    <glyph glyph-name="Lslash" unicode="&#x141;" 
d="M56 0v286l-70 -48v60l70 48v368h64v-324l186 127v-60l-186 -127v-276h296v-54h-360z" />
    <glyph glyph-name="lslash" unicode="&#x142;" horiz-adv-x="184" 
d="M62 0v316l-62 -66v60l62 66v338h60v-274l62 66v-60l-62 -66v-380h-60z" />
    <glyph glyph-name="OE" unicode="&#x152;" horiz-adv-x="778" 
d="M410 237v254q0 102 -32.5 141.5t-107.5 39.5q-80 0 -122 -74t-42 -241t42 -241t122 -74q74 0 107 45t33 150zM410 656v58h339v-54h-275v-260h256v-54h-256v-292h284v-54h-348v64h-2q-31 -76 -138 -76q-228 0 -228 369t228 369q100 0 138 -70h2z" />
    <glyph glyph-name="oe" unicode="&#x153;" horiz-adv-x="704" 
d="M601 176h60q-5 -90 -48 -139t-115 -49q-100 0 -138 110h-2q-15 -53 -50.5 -81.5t-86.5 -28.5q-89 0 -136 70.5t-47 207.5t47 207t136 70q53 0 90.5 -28t52.5 -83h2q29 111 138 111q88 0 125 -67t37 -213h-274v-29q0 -97 28.5 -146.5t75.5 -49.5q44 0 74 39t31 99z
M102 266q0 -120 31.5 -174t83.5 -54t83.5 54t31.5 174q0 119 -31.5 173t-83.5 54t-83.5 -54t-31.5 -173zM392 313h210q-1 180 -105 180q-102 0 -105 -180z" />
    <glyph glyph-name="Scaron" unicode="&#x160;" horiz-adv-x="480" 
d="M433 531h-64q0 67 -32 104t-96 37q-63 0 -99 -36.5t-36 -91.5q0 -38 15 -66t39 -43t55.5 -28.5t63.5 -22t63.5 -23.5t55.5 -33.5t39 -52t15 -78.5q0 -101 -58 -155t-158 -54q-101 0 -154.5 54t-53.5 158v21h64v-27q0 -70 36.5 -111t105.5 -41q71 0 112.5 36.5t41.5 108.5
q0 43 -19 72.5t-49.5 45t-67.5 27.5t-74 25.5t-67.5 33.5t-49.5 57t-19 89q0 85 52.5 137t144.5 52q194 0 194 -195zM113 889h60l67 -101l67 101h60l-98 -141h-60z" />
    <glyph glyph-name="scaron" unicode="&#x161;" horiz-adv-x="389" 
d="M226 231l-84 33q-102 39 -102 126q0 78 43 115.5t115 37.5q146 0 146 -148v-15h-60v15q0 98 -87 98q-97 0 -97 -90q0 -31 15 -52t57 -37l87 -33q99 -37 99 -135q0 -71 -41.5 -114.5t-122.5 -43.5q-84 0 -123.5 38.5t-39.5 126.5v17h60v-14q0 -118 102 -118
q48 0 76.5 25.5t28.5 69.5q0 36 -16.5 59.5t-55.5 38.5zM68 738h60l67 -101l67 101h60l-98 -141h-60z" />
    <glyph glyph-name="Ydieresis" unicode="&#x178;" horiz-adv-x="444" 
d="M190 0v286l-193 428h68l157 -356l157 356h68l-193 -428v-286h-64zM117 769v102h60v-102h-60zM267 769v102h60v-102h-60z" />
    <glyph glyph-name="Zcaron" unicode="&#x17d;" horiz-adv-x="462" 
d="M22 0v60l348 600h-328v54h393v-60l-342 -600h347v-54h-418zM104 889h60l67 -101l67 101h60l-98 -141h-60z" />
    <glyph glyph-name="zcaron" unicode="&#x17e;" horiz-adv-x="352" 
d="M18 0v50l252 431h-239v50h303v-50l-252 -431h252v-50h-316zM49 738h60l67 -101l67 101h60l-98 -141h-60z" />
    <glyph glyph-name="florin" unicode="&#x192;" horiz-adv-x="480" 
d="M112 397l8 44h105l26 130q28 143 160 143q13 0 47 -4l-11 -50q-18 4 -27 4q-51 0 -77.5 -27t-43.5 -121l-14 -75h112l-8 -44h-112l-73 -382q-21 -107 -56 -149t-108 -42q-35 0 -53 7l11 50q16 -7 33 -7q51 0 73.5 28.5t42.5 133.5l70 361h-105z" />
    <glyph glyph-name="circumflex" unicode="&#x2c6;" horiz-adv-x="186" 
d="M27 597h-60l96 141h60l96 -141h-60l-66 100z" />
    <glyph glyph-name="caron" unicode="&#x2c7;" horiz-adv-x="186" 
d="M-34 738h60l67 -101l67 101h60l-98 -141h-60z" />
    <glyph glyph-name="uni02C9" unicode="&#x2c9;" horiz-adv-x="186" 
d="M-26 646v44h238v-44h-238z" />
    <glyph glyph-name="breve" unicode="&#x2d8;" horiz-adv-x="186" 
d="M-28 726h44q4 -34 26 -58q20 -20 51 -20t52 20.5t25 57.5h44q-4 -56 -37 -89t-84 -33t-84 33t-37 89z" />
    <glyph glyph-name="dotaccent" unicode="&#x2d9;" horiz-adv-x="186" 
d="M63 618v102h60v-102h-60z" />
    <glyph glyph-name="ring" unicode="&#x2da;" horiz-adv-x="186" 
d="M-2 681q0 39 28 67t67 28t67 -28t28 -67t-28 -67t-67 -28t-67 28t-28 67zM34 681q0 -25 17 -42t42 -17t42 17t17 42t-17 42t-42 17t-42 -17t-17 -42z" />
    <glyph glyph-name="ogonek" unicode="&#x2db;" horiz-adv-x="186" 
d="M116 6h47q-96 -65 -96 -127q0 -47 55 -47q27 0 59 19l13 -29q-38 -26 -92 -26q-46 0 -67.5 20.5t-21.5 51.5q0 40 26.5 77.5t76.5 60.5z" />
    <glyph glyph-name="tilde" unicode="&#x2dc;" horiz-adv-x="186" 
d="M183 718h44q-1 -35 -22.5 -66.5t-54.5 -31.5q-24 0 -49 15l-38 21q-16 8 -24 8q-13 0 -23 -14.5t-13 -33.5h-44q2 35 24 66.5t52 31.5q25 0 57 -18l26 -15q18 -11 30 -11q15 0 25.5 16.5t9.5 31.5z" />
    <glyph glyph-name="hungarumlaut" unicode="&#x2dd;" horiz-adv-x="186" 
d="M49 738h71l-98 -141h-47zM200 738h71l-98 -141h-47z" />
    <glyph glyph-name="uni03A9" unicode="&#x3a9;" horiz-adv-x="622" 
d="M178 49v3q-53 55 -87 138t-34 183q0 150 73 241t184 91t180 -94t69 -234q0 -104 -35 -189.5t-86 -135.5v-3h133v-49h-202v36q56 47 95 134.5t39 194.5q0 69 -20.5 133.5t-66 110.5t-107.5 46q-90 0 -145 -82.5t-55 -207.5q0 -103 40 -194.5t95 -134.5v-36h-202v49h132z
" />
    <glyph glyph-name="uni03BC" unicode="&#x3bc;" horiz-adv-x="444" 
d="M58 -176v707h60v-374q0 -64 22 -91.5t70 -27.5q51 0 83.5 37.5t32.5 98.5v357h60v-531h-54v74h-2q-44 -86 -136 -86q-58 0 -74 24h-2v-188h-60z" />
    <glyph glyph-name="pi" unicode="&#x3c0;" horiz-adv-x="491" 
d="M465 465h-71v-324q0 -96 13 -141h-53q-15 28 -15 135v330h-165q-4 -113 -23 -256t-43 -209h-54q25 76 43.5 213.5t21.5 251.5q-69 0 -98 -12l-10 38q36 24 121 24h339z" />
    <glyph glyph-name="endash" unicode="&#x2013;" horiz-adv-x="500" 
d="M0 311h500v-54h-500v54z" />
    <glyph glyph-name="emdash" unicode="&#x2014;" horiz-adv-x="1000" 
d="M0 311h1000v-54h-1000v54z" />
    <glyph glyph-name="quoteleft" unicode="&#x2018;" horiz-adv-x="240" 
d="M83 474v102q0 111 74 138v-40q-34 -21 -35 -98h29v-102h-68z" />
    <glyph glyph-name="quoteright" unicode="&#x2019;" horiz-adv-x="240" 
d="M89 612v102h68v-102q0 -111 -74 -138v40q34 21 35 98h-29z" />
    <glyph glyph-name="quotesinglbase" unicode="&#x201a;" horiz-adv-x="240" 
d="M89 0v102h68v-102q0 -111 -74 -138v40q34 21 35 98h-29z" />
    <glyph glyph-name="quotedblleft" unicode="&#x201c;" horiz-adv-x="352" 
d="M205 474v102q0 111 74 138v-40q-34 -21 -35 -98h29v-102h-68zM73 474v102q0 111 74 138v-40q-34 -21 -35 -98h29v-102h-68z" />
    <glyph glyph-name="quotedblright" unicode="&#x201d;" horiz-adv-x="352" 
d="M79 612v102h68v-102q0 -111 -74 -138v40q34 21 35 98h-29zM211 612v102h68v-102q0 -111 -74 -138v40q34 21 35 98h-29z" />
    <glyph glyph-name="quotedblbase" unicode="&#x201e;" horiz-adv-x="352" 
d="M79 0v102h68v-102q0 -111 -74 -138v40q34 21 35 98h-29zM211 0v102h68v-102q0 -111 -74 -138v40q34 21 35 98h-29z" />
    <glyph glyph-name="dagger" unicode="&#x2020;" horiz-adv-x="480" 
d="M210 490v224h60v-224h176v-50h-176v-585h-60v585h-176v50h176z" />
    <glyph glyph-name="daggerdbl" unicode="&#x2021;" horiz-adv-x="480" 
d="M210 714h60v-206h176v-50h-176v-347h176v-50h-176v-206h-60v206h-176v50h176v347h-176v50h176v206z" />
    <glyph glyph-name="bullet" unicode="&#x2022;" horiz-adv-x="500" 
d="M72 357q0 73 52 125.5t126 52.5t126 -52.5t52 -125.5t-52 -125.5t-126 -52.5t-126 52.5t-52 125.5z" />
    <glyph glyph-name="ellipsis" unicode="&#x2026;" horiz-adv-x="1000" 
d="M133 0v102h68v-102h-68zM466 0v102h68v-102h-68zM799 0v102h68v-102h-68z" />
    <glyph glyph-name="perthousand" unicode="&#x2030;" horiz-adv-x="1000" 
d="M107 524q0 -140 72 -140t72 140t-72 140t-72 -140zM173 -12l307 720h50l-307 -720h-50zM448 172q0 -140 72 -140t72 140t-72 140t-72 -140zM53 524q0 104 31 144t95 40t95 -40t31 -144t-31 -144t-95 -40t-95 40t-31 144zM394 172q0 104 31 144t95 40t95 -40t31 -144
t-31 -144t-95 -40t-95 40t-31 144zM749 172q0 -140 72 -140t72 140t-72 140t-72 -140zM695 172q0 104 31 144t95 40t95 -40t31 -144t-31 -144t-95 -40t-95 40t-31 144z" />
    <glyph glyph-name="guilsinglleft" unicode="&#x2039;" horiz-adv-x="241" 
d="M58 254v60l125 139v-68l-89 -101l89 -101v-68z" />
    <glyph glyph-name="guilsinglright" unicode="&#x203a;" horiz-adv-x="241" 
d="M58 115v68l89 101l-89 101v68l125 -139v-60z" />
    <glyph glyph-name="fraction" unicode="&#x2044;" horiz-adv-x="167" 
d="M-167 -30l451 756h50l-451 -756h-50z" />
    <glyph glyph-name="Euro" unicode="&#x20ac;" horiz-adv-x="480" 
d="M477 665l-24 -55q-77 47 -134 47q-43 0 -74.5 -17.5t-49 -49t-26.5 -64.5t-14 -76h257l-18 -54h-243q-1 -11 -1 -32v-32h229l-19 -54h-209q3 -38 7.5 -67.5t16 -63.5t29 -56.5t47 -37.5t68.5 -15q40 0 69 15.5t68 48.5v-73q-60 -41 -138 -41q-65 0 -111 22.5t-71 65.5
t-36.5 90.5t-16.5 111.5h-69l18 54h49v32q0 21 1 32h-68l18 54h54q29 260 237 260q72 0 154 -45z" />
    <glyph glyph-name="afii61289" unicode="&#x2113;" horiz-adv-x="421" 
d="M371 128l28 -23q-56 -112 -157 -112q-73 0 -107 53t-36 141v14q-30 -26 -51 -46l-20 34q9 8 24 22t26.5 25t20.5 21v277q0 123 38 177t92 54q50 0 77 -42t27 -111q0 -170 -181 -366v-34q0 -90 27.5 -131.5t72.5 -41.5q71 0 119 89zM152 538v-230q142 171 142 303
q0 108 -66 108q-31 0 -53.5 -44t-22.5 -137z" />
    <glyph glyph-name="trademark" unicode="&#x2122;" horiz-adv-x="990" 
d="M177 302v368h-135v44h320v-44h-135v-368h-50zM654 380l128 334h86v-412h-50v368h-2l-149 -368h-30l-149 368h-2v-368h-50v412h86z" />
    <glyph glyph-name="Omega" unicode="&#x2126;" horiz-adv-x="622" 
d="M178 49v3q-53 55 -87 138t-34 183q0 150 73 241t184 91t180 -94t69 -234q0 -104 -35 -189.5t-86 -135.5v-3h133v-49h-202v36q56 47 95 134.5t39 194.5q0 69 -20.5 133.5t-66 110.5t-107.5 46q-90 0 -145 -82.5t-55 -207.5q0 -103 40 -194.5t95 -134.5v-36h-202v49h132z
" />
    <glyph glyph-name="estimated" unicode="&#x212e;" horiz-adv-x="868" 
d="M833 338h-647q-5 0 -5 -4v-196q0 -12 8 -23q103 -106 245 -106q75 0 142 32t116 87h57q-54 -64 -137.5 -101.5t-178.5 -37.5q-165 0 -282 105t-117 254t117 254.5t282 105.5q166 0 283 -105.5t117 -254.5v-10zM686 363v198q0 14 -9 23q-104 102 -243 102
q-141 0 -244 -105q-9 -11 -9 -25v-193q0 -6 5 -6h496q4 0 4 6z" />
    <glyph glyph-name="partialdiff" unicode="&#x2202;" horiz-adv-x="473" 
d="M90 682l-21 43q61 53 142 53q90 0 153.5 -94t63.5 -279q0 -189 -58 -300.5t-166 -111.5q-78 0 -121 64t-43 161q0 112 56 183t132 71q53 0 91 -28.5t53 -59.5h1q1 11 1 42q0 134 -49 218.5t-119 84.5q-65 0 -116 -47zM208 41h1q63 0 105.5 79.5t51.5 196.5q-13 41 -48 74
t-83 33q-57 0 -98.5 -60.5t-41.5 -144.5q0 -81 30.5 -129.5t82.5 -48.5z" />
    <glyph glyph-name="Delta" unicode="&#x2206;" horiz-adv-x="560" 
d="M30 0v41l221 671h62l218 -670v-42h-501zM85 47h387l-133 407q-6 19 -29 86.5t-29 94.5h-4q-4 -24 -25 -85.5t-27 -82.5z" />
    <glyph glyph-name="product" unicode="&#x220f;" horiz-adv-x="605" 
d="M580 641h-95v-737h-54v737h-258v-737h-54v737h-95v53h556v-53z" />
    <glyph glyph-name="summation" unicode="&#x2211;" horiz-adv-x="485" 
d="M464 -96h-443v40l243 354l-231 355v41h415v-50h-339v-3l218 -335l-236 -343v-4h373v-55z" />
    <glyph glyph-name="minus" unicode="&#x2212;" horiz-adv-x="600" 
d="M47 228v50h506v-50h-506z" />
    <glyph glyph-name="uni2215" unicode="&#x2215;" horiz-adv-x="167" 
d="M-167 -30l451 756h50l-451 -756h-50z" />
    <glyph glyph-name="uni2219" unicode="&#x2219;" horiz-adv-x="240" 
d="M65 328q0 22 16.5 38.5t38.5 16.5t38.5 -16.5t16.5 -38.5t-16.5 -38.5t-38.5 -16.5t-38.5 16.5t-16.5 38.5z" />
    <glyph glyph-name="radical" unicode="&#x221a;" horiz-adv-x="505" 
d="M500 824l-195 -976h-51l-145 470l-66 -24l-12 37l115 43l117 -374q14 -68 15 -73h1q1 7 11 71l167 826h43z" />
    <glyph glyph-name="infinity" unicode="&#x221e;" horiz-adv-x="706" 
d="M660 290v-1q0 -62 -41 -102t-97 -40q-41 0 -78.5 25.5t-89.5 83.5q-31 -35 -51 -54t-53.5 -37t-68.5 -18q-56 0 -95.5 40.5t-39.5 98.5q0 61 40 101.5t101 40.5q47 0 86.5 -29t83.5 -82q35 39 51.5 56t51 36t69.5 19q59 0 95 -38.5t36 -99.5zM186 185h1q14 0 29.5 5.5
t25.5 11t26 19t22 19.5t22.5 24t19.5 21q-29 36 -44.5 52.5t-46 35t-61.5 18.5q-43 0 -68 -31t-24 -75q0 -43 27 -71.5t71 -28.5zM525 391h-1q-18 0 -35.5 -7t-34.5 -20.5t-28 -24t-27.5 -29t-20.5 -22.5q38 -41 56 -58t43 -31t49 -14q42 0 67.5 30.5t25.5 70.5
q0 49 -26.5 77t-67.5 28z" />
    <glyph glyph-name="integral" unicode="&#x222b;" horiz-adv-x="316" 
d="M300 832l-11 -40q-14 9 -32 9q-29 0 -46 -24q-31 -40 -31 -180q0 -77 5.5 -252.5t5.5 -254.5q0 -141 -41 -202q-27 -44 -83 -44q-33 0 -54 15l12 42q23 -10 39 -10q27 0 43 24q31 46 31 175q0 80 -5.5 258t-5.5 254q0 153 46 206q32 37 81 37q26 0 46 -13z" />
    <glyph glyph-name="approxequal" unicode="&#x2248;" horiz-adv-x="501" 
d="M433 412l26 -20q-40 -88 -114 -88q-24 0 -45 8.5t-59 30.5q-53 31 -85 31q-48 0 -88 -69l-27 20q41 87 121 87q15 0 32 -5t25 -8.5t27 -14.5l18 -10q3 -1 12.5 -6.5t12 -7.5t10.5 -6t12 -5t11 -3.5t13 -3t13 -0.5q27 0 46 17t39 53zM433 261l26 -20q-42 -87 -114 -87
q-17 0 -34.5 5t-30 11.5t-39.5 21.5q-55 32 -84 32q-49 0 -89 -70l-27 20q42 88 121 88q15 0 31.5 -4.5t26 -9t25 -13.5t19.5 -11q2 -1 12 -7t12.5 -7t10.5 -5.5t12.5 -5.5t11.5 -3.5t13 -3t13 -0.5q46 0 84 69z" />
    <glyph glyph-name="notequal" unicode="&#x2260;" horiz-adv-x="501" 
d="M353 479l-41 -90h141v-40h-157l-61 -134h218v-39h-234l-48 -106l-31 14l41 92h-135v39h152l60 134h-212v40h228l47 104z" />
    <glyph glyph-name="lessequal" unicode="&#x2264;" horiz-adv-x="501" 
d="M451 106l-400 210v40l400 210v-49l-356 -179v-2l356 -181v-49zM454 25h-407v41h407v-41z" />
    <glyph glyph-name="greaterequal" unicode="&#x2265;" horiz-adv-x="501" 
d="M52 566l400 -210v-40l-400 -210v49l356 180v2l-356 180v49zM453 25h-406v41h406v-41z" />
    <glyph glyph-name="lozenge" unicode="&#x25ca;" horiz-adv-x="506" 
d="M455 347l-180 -385h-46l-179 385l180 385h47zM403 345l-133 283q-6 14 -17 52h-2q-8 -32 -17 -52l-132 -280l134 -284q11 -28 15 -51h4q4 25 15 50z" />
    <hkern u1="&#x20;" u2="&#x201c;" k="37" />
    <hkern u1="&#x20;" u2="&#x2018;" k="37" />
    <hkern u1="&#x2c;" u2="&#x201d;" k="37" />
    <hkern u1="&#x2c;" u2="&#x2019;" k="37" />
    <hkern u1="&#x2c;" u2="&#x20;" k="37" />
    <hkern u1="&#x2e;" u2="&#x20;" k="37" />
    <hkern u1="&#x3a;" u2="&#x20;" k="37" />
    <hkern u1="T" u2="&#xfc;" k="37" />
    <hkern u1="T" u2="&#xf6;" k="37" />
    <hkern u1="T" u2="&#xf2;" k="37" />
    <hkern u1="T" u2="&#xee;" k="-4" />
    <hkern u1="T" u2="&#xed;" k="9" />
    <hkern u1="T" u2="&#xec;" k="-9" />
    <hkern u1="T" u2="&#xeb;" k="37" />
    <hkern u1="T" u2="&#xea;" k="56" />
    <hkern u1="T" u2="&#xe8;" k="56" />
    <hkern u1="T" u2="&#xe5;" k="37" />
    <hkern u1="T" u2="&#xe4;" k="19" />
    <hkern u1="T" u2="&#xe3;" k="37" />
    <hkern u1="T" u2="&#xe2;" k="37" />
    <hkern u1="T" u2="&#xe0;" k="37" />
    <hkern u1="V" u2="&#xf6;" k="9" />
    <hkern u1="V" u2="&#xf4;" k="14" />
    <hkern u1="V" u2="&#xeb;" k="9" />
    <hkern u1="V" u2="&#xea;" k="9" />
    <hkern u1="V" u2="&#xe8;" k="9" />
    <hkern u1="V" u2="&#xe5;" k="9" />
    <hkern u1="V" u2="&#xe4;" k="9" />
    <hkern u1="V" u2="&#xe3;" k="9" />
    <hkern u1="V" u2="&#xe2;" k="9" />
    <hkern u1="V" u2="&#xe0;" k="9" />
    <hkern u1="W" u2="&#xf6;" k="14" />
    <hkern u1="W" u2="&#xea;" k="14" />
    <hkern u1="W" u2="&#xe4;" k="14" />
    <hkern u1="Y" u2="&#xfc;" k="28" />
    <hkern u1="Y" u2="&#xf6;" k="41" />
    <hkern u1="&#x2018;" u2="&#x2018;" k="108" />
    <hkern u1="&#x2019;" u2="&#x2019;" k="108" />
    <hkern u1="&#x201d;" u2="&#x20;" k="37" />
    <hkern g1="A,Agrave,Aacute,Acircumflex,Atilde,Adieresis,Aring"
	g2="Q"
	k="-6" />
    <hkern g1="A,Agrave,Aacute,Acircumflex,Atilde,Adieresis,Aring"
	g2="T"
	k="55" />
    <hkern g1="A,Agrave,Aacute,Acircumflex,Atilde,Adieresis,Aring"
	g2="U,Ugrave,Uacute,Ucircumflex,Udieresis"
	k="-6" />
    <hkern g1="A,Agrave,Aacute,Acircumflex,Atilde,Adieresis,Aring"
	g2="v"
	k="18" />
    <hkern g1="A,Agrave,Aacute,Acircumflex,Atilde,Adieresis,Aring"
	g2="V"
	k="27" />
    <hkern g1="A,Agrave,Aacute,Acircumflex,Atilde,Adieresis,Aring"
	g2="w"
	k="18" />
    <hkern g1="A,Agrave,Aacute,Acircumflex,Atilde,Adieresis,Aring"
	g2="W"
	k="27" />
    <hkern g1="A,Agrave,Aacute,Acircumflex,Atilde,Adieresis,Aring"
	g2="y,yacute,ydieresis"
	k="18" />
    <hkern g1="A,Agrave,Aacute,Acircumflex,Atilde,Adieresis,Aring"
	g2="Y,Yacute,Ydieresis"
	k="55" />
    <hkern g1="A,Agrave,Aacute,Acircumflex,Atilde,Adieresis,Aring"
	g2="quotedblright"
	k="55" />
    <hkern g1="A,Agrave,Aacute,Acircumflex,Atilde,Adieresis,Aring"
	g2="quoteright"
	k="55" />
    <hkern g1="f,fi,fl"
	g2="quotedblright"
	k="-18" />
    <hkern g1="f,fi,fl"
	g2="quoteright"
	k="-18" />
    <hkern g1="F"
	g2="A,Agrave,Aacute,Acircumflex,Atilde,Adieresis,Aring,AE"
	k="37" />
    <hkern g1="F"
	g2="comma"
	k="111" />
    <hkern g1="F"
	g2="period"
	k="111" />
    <hkern g1="L,Lslash"
	g2="T"
	k="74" />
    <hkern g1="L,Lslash"
	g2="V"
	k="74" />
    <hkern g1="L,Lslash"
	g2="W"
	k="74" />
    <hkern g1="L,Lslash"
	g2="y,yacute,ydieresis"
	k="37" />
    <hkern g1="L,Lslash"
	g2="Y,Yacute,Ydieresis"
	k="92" />
    <hkern g1="L,Lslash"
	g2="quotedblright"
	k="92" />
    <hkern g1="L,Lslash"
	g2="quoteright"
	k="92" />
    <hkern g1="P"
	g2="A,Agrave,Aacute,Acircumflex,Atilde,Adieresis,Aring,AE"
	k="37" />
    <hkern g1="P"
	g2="comma"
	k="129" />
    <hkern g1="P"
	g2="period"
	k="129" />
    <hkern g1="r"
	g2="v"
	k="-18" />
    <hkern g1="r"
	g2="y,yacute,ydieresis"
	k="-18" />
    <hkern g1="r"
	g2="comma"
	k="74" />
    <hkern g1="r"
	g2="period"
	k="74" />
    <hkern g1="r"
	g2="hyphen"
	k="37" />
    <hkern g1="R"
	g2="T"
	k="18" />
    <hkern g1="R"
	g2="U,Ugrave,Uacute,Ucircumflex,Udieresis"
	k="-6" />
    <hkern g1="R"
	g2="Y,Yacute,Ydieresis"
	k="18" />
    <hkern g1="T"
	g2="w"
	k="74" />
    <hkern g1="T"
	g2="y,yacute,ydieresis"
	k="55" />
    <hkern g1="T"
	g2="A,Agrave,Aacute,Acircumflex,Atilde,Adieresis,Aring,AE"
	k="55" />
    <hkern g1="T"
	g2="comma"
	k="92" />
    <hkern g1="T"
	g2="period"
	k="92" />
    <hkern g1="T"
	g2="hyphen"
	k="55" />
    <hkern g1="T"
	g2="a,agrave,aacute,acircumflex,atilde,adieresis,aring,ae"
	k="74" />
    <hkern g1="T"
	g2="e,egrave,eacute,ecircumflex,edieresis"
	k="74" />
    <hkern g1="T"
	g2="i,igrave,iacute,icircumflex,idieresis"
	k="18" />
    <hkern g1="T"
	g2="o,ograve,oacute,ocircumflex,otilde,odieresis,oslash,oe"
	k="74" />
    <hkern g1="T"
	g2="r"
	k="74" />
    <hkern g1="T"
	g2="u,ugrave,uacute,ucircumflex,udieresis"
	k="74" />
    <hkern g1="T"
	g2="colon"
	k="74" />
    <hkern g1="T"
	g2="semicolon"
	k="74" />
    <hkern g1="v"
	g2="comma"
	k="55" />
    <hkern g1="v"
	g2="period"
	k="55" />
    <hkern g1="V"
	g2="A,Agrave,Aacute,Acircumflex,Atilde,Adieresis,Aring,AE"
	k="37" />
    <hkern g1="V"
	g2="comma"
	k="92" />
    <hkern g1="V"
	g2="period"
	k="92" />
    <hkern g1="V"
	g2="hyphen"
	k="18" />
    <hkern g1="V"
	g2="a,agrave,aacute,acircumflex,atilde,adieresis,aring,ae"
	k="18" />
    <hkern g1="V"
	g2="e,egrave,eacute,ecircumflex,edieresis"
	k="18" />
    <hkern g1="V"
	g2="o,ograve,oacute,ocircumflex,otilde,odieresis,oslash,oe"
	k="18" />
    <hkern g1="V"
	g2="u,ugrave,uacute,ucircumflex,udieresis"
	k="18" />
    <hkern g1="V"
	g2="colon"
	k="18" />
    <hkern g1="V"
	g2="semicolon"
	k="18" />
    <hkern g1="w"
	g2="comma"
	k="37" />
    <hkern g1="w"
	g2="period"
	k="37" />
    <hkern g1="W"
	g2="A,Agrave,Aacute,Acircumflex,Atilde,Adieresis,Aring,AE"
	k="18" />
    <hkern g1="W"
	g2="comma"
	k="74" />
    <hkern g1="W"
	g2="period"
	k="74" />
    <hkern g1="W"
	g2="hyphen"
	k="18" />
    <hkern g1="W"
	g2="a,agrave,aacute,acircumflex,atilde,adieresis,aring,ae"
	k="18" />
    <hkern g1="W"
	g2="e,egrave,eacute,ecircumflex,edieresis"
	k="18" />
    <hkern g1="W"
	g2="o,ograve,oacute,ocircumflex,otilde,odieresis,oslash,oe"
	k="18" />
    <hkern g1="y,yacute,ydieresis"
	g2="comma"
	k="55" />
    <hkern g1="y,yacute,ydieresis"
	g2="period"
	k="55" />
    <hkern g1="Y,Yacute,Ydieresis"
	g2="A,Agrave,Aacute,Acircumflex,Atilde,Adieresis,Aring,AE"
	k="55" />
    <hkern g1="Y,Yacute,Ydieresis"
	g2="comma"
	k="111" />
    <hkern g1="Y,Yacute,Ydieresis"
	g2="period"
	k="111" />
    <hkern g1="Y,Yacute,Ydieresis"
	g2="hyphen"
	k="74" />
    <hkern g1="Y,Yacute,Ydieresis"
	g2="a,agrave,aacute,acircumflex,atilde,adieresis,aring,ae"
	k="55" />
    <hkern g1="Y,Yacute,Ydieresis"
	g2="e,egrave,eacute,ecircumflex,edieresis"
	k="55" />
    <hkern g1="Y,Yacute,Ydieresis"
	g2="i,igrave,iacute,icircumflex,idieresis"
	k="18" />
    <hkern g1="Y,Yacute,Ydieresis"
	g2="o,ograve,oacute,ocircumflex,otilde,odieresis,oslash,oe"
	k="55" />
    <hkern g1="Y,Yacute,Ydieresis"
	g2="u,ugrave,uacute,ucircumflex,udieresis"
	k="37" />
    <hkern g1="Y,Yacute,Ydieresis"
	g2="colon"
	k="37" />
    <hkern g1="Y,Yacute,Ydieresis"
	g2="semicolon"
	k="37" />
    <hkern g1="quoteright"
	g2="s,scaron"
	k="55" />
    <hkern g1="space"
	g2="T"
	k="37" />
    <hkern g1="space"
	g2="V"
	k="37" />
    <hkern g1="space"
	g2="W"
	k="37" />
    <hkern g1="space"
	g2="Y,Yacute,Ydieresis"
	k="37" />
    <hkern g1="space"
	g2="A,Agrave,Aacute,Acircumflex,Atilde,Adieresis,Aring,AE"
	k="37" />
  </font>
</defs></svg>
